<?xml version="1.0" encoding="UTF-8" standalone="no"?>
<!-- Created with Inkscape (http://www.inkscape.org/) -->

<svg
   xmlns:dc="http://purl.org/dc/elements/1.1/"
   xmlns:cc="http://creativecommons.org/ns#"
   xmlns:rdf="http://www.w3.org/1999/02/22-rdf-syntax-ns#"
   xmlns:svg="http://www.w3.org/2000/svg"
   xmlns="http://www.w3.org/2000/svg"
   xmlns:xlink="http://www.w3.org/1999/xlink"
   xmlns:sodipodi="http://sodipodi.sourceforge.net/DTD/sodipodi-0.dtd"
   xmlns:inkscape="http://www.inkscape.org/namespaces/inkscape"
   width="3212.5984"
   height="7559.0547"
   id="svg51047"
   version="1.1"
   inkscape:version="0.92.3 (2405546, 2018-03-11)"
   sodipodi:docname="kakemono_chatons_secours_pyg-2019.svg"
   inkscape:export-filename="/home/pyg/Cloud/Framasoft/Communication/Chatons/kakemono/kakemono_chatons_secours_pyg-2019.png"
   inkscape:export-xdpi="149.99327"
   inkscape:export-ydpi="149.99327">
  <defs
     id="defs51049">
    <linearGradient
       inkscape:collect="always"
       xlink:href="#linearGradient7318-8-2-29-0"
       id="linearGradient5664-3-8-5"
       x1="16.243999"
       y1="50.329498"
       x2="80.862999"
       y2="50.329498"
       gradientUnits="userSpaceOnUse" />
    <linearGradient
       id="linearGradient7318-8-2-29-0">
      <stop
         style="stop-color:#ad870a;stop-opacity:1;"
         offset="0"
         id="stop7320-7-0-60-4" />
      <stop
         style="stop-color:#cdb62d;stop-opacity:1;"
         offset="1"
         id="stop7322-5-4-2-2" />
    </linearGradient>
    <linearGradient
       y2="50.329498"
       x2="80.862999"
       y1="50.329498"
       x1="16.243999"
       gradientUnits="userSpaceOnUse"
       id="linearGradient10152"
       xlink:href="#linearGradient7318-8-2-29-0"
       inkscape:collect="always" />
    <linearGradient
       id="linearGradient66137">
      <stop
         style="stop-color:#ad870a;stop-opacity:1;"
         offset="0"
         id="stop66139" />
      <stop
         style="stop-color:#cdb62d;stop-opacity:1;"
         offset="1"
         id="stop66141" />
    </linearGradient>
    <linearGradient
       inkscape:collect="always"
       xlink:href="#linearGradient7318-8-2-29-0"
       id="linearGradient6547-6-03-9"
       gradientUnits="userSpaceOnUse"
       x1="16.243999"
       y1="50.329498"
       x2="80.862999"
       y2="50.329498" />
    <linearGradient
       id="linearGradient66144">
      <stop
         style="stop-color:#ad870a;stop-opacity:1;"
         offset="0"
         id="stop66146" />
      <stop
         style="stop-color:#cdb62d;stop-opacity:1;"
         offset="1"
         id="stop66148" />
    </linearGradient>
    <filter
       id="filter6482-4-6-9"
       inkscape:label="Fancy blur"
       inkscape:menu="Blurs"
       inkscape:menu-tooltip="Smooth colorized contour which allows desaturation and hue rotation"
       style="color-interpolation-filters:sRGB">
      <feGaussianBlur
         id="feGaussianBlur6484-0-49-7"
         stdDeviation="5"
         result="result1" />
      <feComposite
         k4="0"
         k3="0"
         k1="0"
         id="feComposite6486-4-0-5"
         in2="result1"
         operator="arithmetic"
         k2="2"
         in="result1" />
    </filter>
    <linearGradient
       id="linearGradient66154">
      <stop
         style="stop-color:#ad870a;stop-opacity:1;"
         offset="0"
         id="stop66156" />
      <stop
         style="stop-color:#cdb62d;stop-opacity:1;"
         offset="1"
         id="stop66158" />
    </linearGradient>
    <linearGradient
       id="linearGradient66161">
      <stop
         style="stop-color:#ad870a;stop-opacity:1;"
         offset="0"
         id="stop66163" />
      <stop
         style="stop-color:#cdb62d;stop-opacity:1;"
         offset="1"
         id="stop66165" />
    </linearGradient>
    <linearGradient
       id="linearGradient66168">
      <stop
         style="stop-color:#ad870a;stop-opacity:1;"
         offset="0"
         id="stop66170" />
      <stop
         style="stop-color:#cdb62d;stop-opacity:1;"
         offset="1"
         id="stop66172" />
    </linearGradient>
    <linearGradient
       inkscape:collect="always"
       xlink:href="#linearGradient7318-8-2-29-0"
       id="linearGradient6557-8-6-6"
       gradientUnits="userSpaceOnUse"
       x1="16.243999"
       y1="50.329498"
       x2="80.862999"
       y2="50.329498" />
    <linearGradient
       id="linearGradient66175">
      <stop
         style="stop-color:#ad870a;stop-opacity:1;"
         offset="0"
         id="stop66177" />
      <stop
         style="stop-color:#cdb62d;stop-opacity:1;"
         offset="1"
         id="stop66179" />
    </linearGradient>
    <linearGradient
       id="linearGradient66182">
      <stop
         style="stop-color:#ad870a;stop-opacity:1;"
         offset="0"
         id="stop66184" />
      <stop
         style="stop-color:#cdb62d;stop-opacity:1;"
         offset="1"
         id="stop66186" />
    </linearGradient>
    <linearGradient
       id="linearGradient66189">
      <stop
         style="stop-color:#ad870a;stop-opacity:1;"
         offset="0"
         id="stop66191" />
      <stop
         style="stop-color:#cdb62d;stop-opacity:1;"
         offset="1"
         id="stop66193" />
    </linearGradient>
    <linearGradient
       id="linearGradient66196">
      <stop
         style="stop-color:#ad870a;stop-opacity:1;"
         offset="0"
         id="stop66198" />
      <stop
         style="stop-color:#cdb62d;stop-opacity:1;"
         offset="1"
         id="stop66200" />
    </linearGradient>
    <linearGradient
       id="linearGradient5666-8-69-0">
      <stop
         id="stop5668-5-9-6"
         offset="0"
         style="stop-color:#d0591d;stop-opacity:1;" />
      <stop
         id="stop5670-6-6-7"
         offset="1"
         style="stop-color:#df743e;stop-opacity:1;" />
    </linearGradient>
    <linearGradient
       id="linearGradient66207">
      <stop
         style="stop-color:#ad870a;stop-opacity:1;"
         offset="0"
         id="stop66209" />
      <stop
         style="stop-color:#cdb62d;stop-opacity:1;"
         offset="1"
         id="stop66211" />
    </linearGradient>
    <linearGradient
       id="linearGradient66214">
      <stop
         style="stop-color:#ad870a;stop-opacity:1;"
         offset="0"
         id="stop66216" />
      <stop
         style="stop-color:#cdb62d;stop-opacity:1;"
         offset="1"
         id="stop66218" />
    </linearGradient>
    <linearGradient
       id="linearGradient66221">
      <stop
         style="stop-color:#ad870a;stop-opacity:1;"
         offset="0"
         id="stop66223" />
      <stop
         style="stop-color:#cdb62d;stop-opacity:1;"
         offset="1"
         id="stop66225" />
    </linearGradient>
    <linearGradient
       y2="47.141811"
       x2="71.896004"
       y1="47.141811"
       x1="28.103001"
       gradientUnits="userSpaceOnUse"
       id="linearGradient7606-9"
       xlink:href="#linearGradient6037-9-3"
       inkscape:collect="always" />
    <linearGradient
       id="linearGradient6037-9-3">
      <stop
         style="stop-color:#942f2f;stop-opacity:1;"
         offset="0"
         id="stop6039-2-5" />
      <stop
         style="stop-color:#b46262;stop-opacity:1;"
         offset="1"
         id="stop6041-2-8" />
    </linearGradient>
    <linearGradient
       id="linearGradient66234">
      <stop
         style="stop-color:#942f2f;stop-opacity:1;"
         offset="0"
         id="stop66236" />
      <stop
         style="stop-color:#b46262;stop-opacity:1;"
         offset="1"
         id="stop66238" />
    </linearGradient>
    <linearGradient
       id="linearGradient66241">
      <stop
         style="stop-color:#942f2f;stop-opacity:1;"
         offset="0"
         id="stop66243" />
      <stop
         style="stop-color:#b46262;stop-opacity:1;"
         offset="1"
         id="stop66245" />
    </linearGradient>
    <linearGradient
       inkscape:collect="always"
       xlink:href="#linearGradient6037-9-3"
       id="linearGradient6941-5-8"
       gradientUnits="userSpaceOnUse"
       x1="28.103001"
       y1="47.141811"
       x2="71.896004"
       y2="47.141811" />
    <linearGradient
       id="linearGradient66248">
      <stop
         style="stop-color:#942f2f;stop-opacity:1;"
         offset="0"
         id="stop66250" />
      <stop
         style="stop-color:#b46262;stop-opacity:1;"
         offset="1"
         id="stop66252" />
    </linearGradient>
    <linearGradient
       inkscape:collect="always"
       xlink:href="#linearGradient6037-9-3"
       id="linearGradient6935-6-7"
       gradientUnits="userSpaceOnUse"
       x1="28.103001"
       y1="47.141811"
       x2="71.896004"
       y2="47.141811" />
    <linearGradient
       id="linearGradient66255">
      <stop
         style="stop-color:#942f2f;stop-opacity:1;"
         offset="0"
         id="stop66257" />
      <stop
         style="stop-color:#b46262;stop-opacity:1;"
         offset="1"
         id="stop66259" />
    </linearGradient>
    <linearGradient
       id="linearGradient66262">
      <stop
         style="stop-color:#942f2f;stop-opacity:1;"
         offset="0"
         id="stop66264" />
      <stop
         style="stop-color:#b46262;stop-opacity:1;"
         offset="1"
         id="stop66266" />
    </linearGradient>
    <linearGradient
       inkscape:collect="always"
       xlink:href="#linearGradient6037-9-3"
       id="linearGradient6939-2-0"
       gradientUnits="userSpaceOnUse"
       x1="28.103001"
       y1="47.141811"
       x2="71.896004"
       y2="47.141811" />
    <linearGradient
       id="linearGradient66269">
      <stop
         style="stop-color:#942f2f;stop-opacity:1;"
         offset="0"
         id="stop66271" />
      <stop
         style="stop-color:#b46262;stop-opacity:1;"
         offset="1"
         id="stop66273" />
    </linearGradient>
    <linearGradient
       id="linearGradient66276">
      <stop
         style="stop-color:#942f2f;stop-opacity:1;"
         offset="0"
         id="stop66278" />
      <stop
         style="stop-color:#b46262;stop-opacity:1;"
         offset="1"
         id="stop66280" />
    </linearGradient>
    <linearGradient
       id="linearGradient66283">
      <stop
         style="stop-color:#942f2f;stop-opacity:1;"
         offset="0"
         id="stop66285" />
      <stop
         style="stop-color:#b46262;stop-opacity:1;"
         offset="1"
         id="stop66287" />
    </linearGradient>
    <linearGradient
       id="linearGradient66290">
      <stop
         style="stop-color:#942f2f;stop-opacity:1;"
         offset="0"
         id="stop66292" />
      <stop
         style="stop-color:#b46262;stop-opacity:1;"
         offset="1"
         id="stop66294" />
    </linearGradient>
    <linearGradient
       inkscape:collect="always"
       xlink:href="#linearGradient6037-9-3"
       id="linearGradient6949-5-4"
       gradientUnits="userSpaceOnUse"
       x1="28.103001"
       y1="47.141811"
       x2="71.896004"
       y2="47.141811" />
    <linearGradient
       id="linearGradient66297">
      <stop
         style="stop-color:#942f2f;stop-opacity:1;"
         offset="0"
         id="stop66299" />
      <stop
         style="stop-color:#b46262;stop-opacity:1;"
         offset="1"
         id="stop66301" />
    </linearGradient>
    <linearGradient
       id="linearGradient66304">
      <stop
         style="stop-color:#942f2f;stop-opacity:1;"
         offset="0"
         id="stop66306" />
      <stop
         style="stop-color:#b46262;stop-opacity:1;"
         offset="1"
         id="stop66308" />
    </linearGradient>
    <linearGradient
       id="linearGradient7318-8">
      <stop
         style="stop-color:#ad870a;stop-opacity:1;"
         offset="0"
         id="stop7320-7" />
      <stop
         style="stop-color:#cdb62d;stop-opacity:1;"
         offset="1"
         id="stop7322-5" />
    </linearGradient>
    <linearGradient
       id="linearGradient66317">
      <stop
         style="stop-color:#ad870a;stop-opacity:1;"
         offset="0"
         id="stop66319" />
      <stop
         style="stop-color:#cdb62d;stop-opacity:1;"
         offset="1"
         id="stop66321" />
    </linearGradient>
    <linearGradient
       id="linearGradient66324">
      <stop
         style="stop-color:#ad870a;stop-opacity:1;"
         offset="0"
         id="stop66326" />
      <stop
         style="stop-color:#cdb62d;stop-opacity:1;"
         offset="1"
         id="stop66328" />
    </linearGradient>
    <linearGradient
       id="linearGradient7382">
      <stop
         style="stop-color:#603c21;stop-opacity:1;"
         offset="0"
         id="stop7384" />
      <stop
         style="stop-color:#604a2b;stop-opacity:1;"
         offset="1"
         id="stop7386" />
    </linearGradient>
    <linearGradient
       id="linearGradient7392">
      <stop
         style="stop-color:#8e8e8e;stop-opacity:1;"
         offset="0"
         id="stop7394" />
      <stop
         style="stop-color:#ffffff;stop-opacity:1;"
         offset="1"
         id="stop7396" />
    </linearGradient>
    <linearGradient
       id="linearGradient5882">
      <stop
         style="stop-color:#e3de83;stop-opacity:1;"
         offset="0"
         id="stop5884" />
      <stop
         style="stop-color:#f1b61b;stop-opacity:1;"
         offset="1"
         id="stop5886" />
    </linearGradient>
    <linearGradient
       id="linearGradient7478">
      <stop
         style="stop-color:#90c67b;stop-opacity:1;"
         offset="0"
         id="stop7480" />
      <stop
         style="stop-color:#5a7a4e;stop-opacity:1;"
         offset="1"
         id="stop7482" />
    </linearGradient>
    <linearGradient
       id="linearGradient6037">
      <stop
         style="stop-color:#942f2f;stop-opacity:1;"
         offset="0"
         id="stop6039" />
      <stop
         style="stop-color:#b46262;stop-opacity:1;"
         offset="1"
         id="stop6041" />
    </linearGradient>
    <linearGradient
       id="linearGradient66409">
      <stop
         style="stop-color:#e3de83;stop-opacity:1;"
         offset="0"
         id="stop66411" />
      <stop
         style="stop-color:#f1b61b;stop-opacity:1;"
         offset="1"
         id="stop66413" />
    </linearGradient>
    <linearGradient
       id="linearGradient5902">
      <stop
         style="stop-color:#767676;stop-opacity:1;"
         offset="0"
         id="stop5904" />
      <stop
         style="stop-color:#aeaeae;stop-opacity:1;"
         offset="1"
         id="stop5906" />
    </linearGradient>
    <linearGradient
       id="linearGradient66420">
      <stop
         style="stop-color:#e3de83;stop-opacity:1;"
         offset="0"
         id="stop66422" />
      <stop
         style="stop-color:#f1b61b;stop-opacity:1;"
         offset="1"
         id="stop66424" />
    </linearGradient>
    <linearGradient
       inkscape:collect="always"
       xlink:href="#linearGradient6037-9-3"
       id="linearGradient71109"
       gradientUnits="userSpaceOnUse"
       x1="28.103001"
       y1="47.141811"
       x2="71.896004"
       y2="47.141811" />
    <linearGradient
       inkscape:collect="always"
       xlink:href="#linearGradient6037-9-3"
       id="linearGradient71113"
       gradientUnits="userSpaceOnUse"
       x1="28.103001"
       y1="47.141811"
       x2="71.896004"
       y2="47.141811" />
    <linearGradient
       inkscape:collect="always"
       xlink:href="#linearGradient6037-9-3"
       id="linearGradient71115"
       gradientUnits="userSpaceOnUse"
       x1="28.103001"
       y1="47.141811"
       x2="71.896004"
       y2="47.141811" />
    <linearGradient
       inkscape:collect="always"
       xlink:href="#linearGradient6037-9-3"
       id="linearGradient71123"
       gradientUnits="userSpaceOnUse"
       x1="28.103001"
       y1="47.141811"
       x2="71.896004"
       y2="47.141811" />
    <linearGradient
       inkscape:collect="always"
       xlink:href="#linearGradient6037-9-3"
       id="linearGradient71125"
       gradientUnits="userSpaceOnUse"
       x1="28.103001"
       y1="47.141811"
       x2="71.896004"
       y2="47.141811" />
    <linearGradient
       inkscape:collect="always"
       xlink:href="#linearGradient7318-8-2-29-0"
       id="linearGradient71133"
       gradientUnits="userSpaceOnUse"
       x1="16.243999"
       y1="50.329498"
       x2="80.862999"
       y2="50.329498" />
    <linearGradient
       inkscape:collect="always"
       xlink:href="#linearGradient7318-8-2-29-0"
       id="linearGradient71143"
       gradientUnits="userSpaceOnUse"
       x1="16.243999"
       y1="50.329498"
       x2="80.862999"
       y2="50.329498" />
    <linearGradient
       inkscape:collect="always"
       xlink:href="#linearGradient7318-8-2-29-0"
       id="linearGradient71151"
       gradientUnits="userSpaceOnUse"
       x1="16.243999"
       y1="50.329498"
       x2="80.862999"
       y2="50.329498" />
    <linearGradient
       inkscape:collect="always"
       xlink:href="#linearGradient7318-8-2-29-0"
       id="linearGradient71153"
       gradientUnits="userSpaceOnUse"
       x1="16.243999"
       y1="50.329498"
       x2="80.862999"
       y2="50.329498" />
    <linearGradient
       inkscape:collect="always"
       xlink:href="#linearGradient6037-9-3"
       id="linearGradient73388"
       gradientUnits="userSpaceOnUse"
       x1="28.103001"
       y1="47.141811"
       x2="71.896004"
       y2="47.141811" />
    <linearGradient
       inkscape:collect="always"
       xlink:href="#linearGradient6037-9-3"
       id="linearGradient73392"
       gradientUnits="userSpaceOnUse"
       x1="28.103001"
       y1="47.141811"
       x2="71.896004"
       y2="47.141811" />
    <linearGradient
       inkscape:collect="always"
       xlink:href="#linearGradient6037-9-3"
       id="linearGradient73394"
       gradientUnits="userSpaceOnUse"
       x1="28.103001"
       y1="47.141811"
       x2="71.896004"
       y2="47.141811" />
    <linearGradient
       inkscape:collect="always"
       xlink:href="#linearGradient6037-9-3"
       id="linearGradient73402"
       gradientUnits="userSpaceOnUse"
       x1="28.103001"
       y1="47.141811"
       x2="71.896004"
       y2="47.141811" />
    <linearGradient
       inkscape:collect="always"
       xlink:href="#linearGradient6037-9-3"
       id="linearGradient73404"
       gradientUnits="userSpaceOnUse"
       x1="28.103001"
       y1="47.141811"
       x2="71.896004"
       y2="47.141811" />
    <linearGradient
       inkscape:collect="always"
       xlink:href="#linearGradient7318-8-2-29-0"
       id="linearGradient73412"
       gradientUnits="userSpaceOnUse"
       x1="16.243999"
       y1="50.329498"
       x2="80.862999"
       y2="50.329498" />
    <linearGradient
       inkscape:collect="always"
       xlink:href="#linearGradient7318-8-2-29-0"
       id="linearGradient73422"
       gradientUnits="userSpaceOnUse"
       x1="16.243999"
       y1="50.329498"
       x2="80.862999"
       y2="50.329498" />
    <linearGradient
       inkscape:collect="always"
       xlink:href="#linearGradient7318-8-2-29-0"
       id="linearGradient73430"
       gradientUnits="userSpaceOnUse"
       x1="16.243999"
       y1="50.329498"
       x2="80.862999"
       y2="50.329498" />
    <linearGradient
       inkscape:collect="always"
       xlink:href="#linearGradient7318-8-2-29-0"
       id="linearGradient73432"
       gradientUnits="userSpaceOnUse"
       x1="16.243999"
       y1="50.329498"
       x2="80.862999"
       y2="50.329498" />
    <linearGradient
       inkscape:collect="always"
       xlink:href="#linearGradient10825"
       id="linearGradient10831"
       x1="3.9968029e-15"
       y1="851.29144"
       x2="5.2180482e-15"
       y2="871.82001"
       gradientUnits="userSpaceOnUse" />
    <linearGradient
       id="linearGradient10825">
      <stop
         style="stop-color:#ffffff;stop-opacity:1;"
         offset="0"
         id="stop10827" />
      <stop
         style="stop-color:#ffffff;stop-opacity:0;"
         offset="1"
         id="stop10829" />
    </linearGradient>
    <linearGradient
       id="linearGradient12826">
      <stop
         style="stop-color:#ffd1a1;stop-opacity:1;"
         offset="0"
         id="stop12828" />
      <stop
         style="stop-color:#ffbb7d;stop-opacity:1;"
         offset="1"
         id="stop12830" />
    </linearGradient>
    <linearGradient
       id="linearGradient83646">
      <stop
         style="stop-color:#ffd1a1;stop-opacity:1;"
         offset="0"
         id="stop83648" />
      <stop
         style="stop-color:#ffbb7d;stop-opacity:1;"
         offset="1"
         id="stop83650" />
    </linearGradient>
    <linearGradient
       id="linearGradient83653">
      <stop
         style="stop-color:#ffd1a1;stop-opacity:1;"
         offset="0"
         id="stop83655" />
      <stop
         style="stop-color:#ffbb7d;stop-opacity:1;"
         offset="1"
         id="stop83657" />
    </linearGradient>
    <linearGradient
       id="linearGradient14777">
      <stop
         style="stop-color:#573e24;stop-opacity:1;"
         offset="0"
         id="stop14779" />
      <stop
         style="stop-color:#33281c;stop-opacity:1;"
         offset="1"
         id="stop14781" />
    </linearGradient>
    <linearGradient
       id="linearGradient14789">
      <stop
         style="stop-color:#99833d;stop-opacity:1;"
         offset="0"
         id="stop14791" />
      <stop
         style="stop-color:#5c3d22;stop-opacity:1;"
         offset="1"
         id="stop14793" />
    </linearGradient>
    <linearGradient
       id="linearGradient14802">
      <stop
         style="stop-color:#7a8a9c;stop-opacity:1;"
         offset="0"
         id="stop14804" />
      <stop
         style="stop-color:#9aa7b2;stop-opacity:1;"
         offset="1"
         id="stop14806" />
    </linearGradient>
    <linearGradient
       id="linearGradient14887">
      <stop
         style="stop-color:#ccd0cc;stop-opacity:1;"
         offset="0"
         id="stop14889" />
      <stop
         style="stop-color:#808080;stop-opacity:1;"
         offset="1"
         id="stop14891" />
    </linearGradient>
    <linearGradient
       id="linearGradient83676">
      <stop
         style="stop-color:#ccd0cc;stop-opacity:1;"
         offset="0"
         id="stop83678" />
      <stop
         style="stop-color:#808080;stop-opacity:1;"
         offset="1"
         id="stop83680" />
    </linearGradient>
    <linearGradient
       id="linearGradient83685">
      <stop
         style="stop-color:#ccd0cc;stop-opacity:1;"
         offset="0"
         id="stop83687" />
      <stop
         style="stop-color:#808080;stop-opacity:1;"
         offset="1"
         id="stop83689" />
    </linearGradient>
    <linearGradient
       id="linearGradient14974">
      <stop
         style="stop-color:#f0e48e;stop-opacity:1;"
         offset="0"
         id="stop14976" />
      <stop
         style="stop-color:#ebb631;stop-opacity:1;"
         offset="1"
         id="stop14978" />
    </linearGradient>
    <linearGradient
       id="linearGradient83698">
      <stop
         style="stop-color:#f0e48e;stop-opacity:1;"
         offset="0"
         id="stop83700" />
      <stop
         style="stop-color:#ebb631;stop-opacity:1;"
         offset="1"
         id="stop83702" />
    </linearGradient>
    <linearGradient
       id="linearGradient83705">
      <stop
         style="stop-color:#f0e48e;stop-opacity:1;"
         offset="0"
         id="stop83707" />
      <stop
         style="stop-color:#ebb631;stop-opacity:1;"
         offset="1"
         id="stop83709" />
    </linearGradient>
    <linearGradient
       id="linearGradient83712">
      <stop
         style="stop-color:#f0e48e;stop-opacity:1;"
         offset="0"
         id="stop83714" />
      <stop
         style="stop-color:#ebb631;stop-opacity:1;"
         offset="1"
         id="stop83716" />
    </linearGradient>
    <linearGradient
       id="linearGradient8998">
      <stop
         id="stop9000"
         offset="0"
         style="stop-color:#533e28;stop-opacity:1;" />
      <stop
         id="stop9002"
         offset="1"
         style="stop-color:#8a7345;stop-opacity:1;" />
    </linearGradient>
    <linearGradient
       id="linearGradient9006">
      <stop
         style="stop-color:#eecb84;stop-opacity:1;"
         offset="0"
         id="stop9008" />
      <stop
         style="stop-color:#a98f5c;stop-opacity:1;"
         offset="1"
         id="stop9010" />
    </linearGradient>
    <linearGradient
       id="linearGradient4739-5">
      <stop
         style="stop-color:#ffd1a1;stop-opacity:1;"
         offset="0"
         id="stop4741-9" />
      <stop
         style="stop-color:#ffbb7d;stop-opacity:1;"
         offset="1"
         id="stop4743-6" />
    </linearGradient>
    <linearGradient
       id="linearGradient84361">
      <stop
         style="stop-color:#ffd1a1;stop-opacity:1;"
         offset="0"
         id="stop84363" />
      <stop
         style="stop-color:#ffbb7d;stop-opacity:1;"
         offset="1"
         id="stop84365" />
    </linearGradient>
    <linearGradient
       id="linearGradient84368">
      <stop
         style="stop-color:#ffd1a1;stop-opacity:1;"
         offset="0"
         id="stop84370" />
      <stop
         style="stop-color:#ffbb7d;stop-opacity:1;"
         offset="1"
         id="stop84372" />
    </linearGradient>
    <linearGradient
       id="linearGradient8607">
      <stop
         style="stop-color:#5d422d;stop-opacity:1;"
         offset="0"
         id="stop8609" />
      <stop
         style="stop-color:#807976;stop-opacity:1;"
         offset="1"
         id="stop8611" />
    </linearGradient>
    <linearGradient
       id="linearGradient84379">
      <stop
         style="stop-color:#5d422d;stop-opacity:1;"
         offset="0"
         id="stop84381" />
      <stop
         style="stop-color:#807976;stop-opacity:1;"
         offset="1"
         id="stop84383" />
    </linearGradient>
    <linearGradient
       id="linearGradient8652">
      <stop
         style="stop-color:#d16a6a;stop-opacity:1;"
         offset="0"
         id="stop8654" />
      <stop
         style="stop-color:#7f1f1f;stop-opacity:1;"
         offset="1"
         id="stop8656" />
    </linearGradient>
    <linearGradient
       id="linearGradient8671">
      <stop
         style="stop-color:#567c87;stop-opacity:1;"
         offset="0"
         id="stop8673" />
      <stop
         style="stop-color:#98b3ce;stop-opacity:1;"
         offset="1"
         id="stop8675" />
    </linearGradient>
    <linearGradient
       id="linearGradient8690-8">
      <stop
         style="stop-color:#6d6d6d;stop-opacity:1;"
         offset="0"
         id="stop8692-0" />
      <stop
         style="stop-color:#000000;stop-opacity:1;"
         offset="1"
         id="stop8694-3" />
    </linearGradient>
    <linearGradient
       id="linearGradient8700">
      <stop
         style="stop-color:#ffffff;stop-opacity:0.13488372;"
         offset="0"
         id="stop8702" />
      <stop
         style="stop-color:#ffffff;stop-opacity:1;"
         offset="1"
         id="stop8704" />
    </linearGradient>
    <linearGradient
       id="linearGradient84402">
      <stop
         style="stop-color:#ffffff;stop-opacity:0.13488372;"
         offset="0"
         id="stop84404" />
      <stop
         style="stop-color:#ffffff;stop-opacity:1;"
         offset="1"
         id="stop84406" />
    </linearGradient>
    <linearGradient
       id="linearGradient8737">
      <stop
         style="stop-color:#b17940;stop-opacity:1;"
         offset="0"
         id="stop8739" />
      <stop
         style="stop-color:#d6a74c;stop-opacity:1;"
         offset="1"
         id="stop8741" />
    </linearGradient>
    <linearGradient
       id="linearGradient8827">
      <stop
         style="stop-color:#ffba19;stop-opacity:1;"
         offset="0"
         id="stop8829" />
      <stop
         style="stop-color:#d71515;stop-opacity:1;"
         offset="1"
         id="stop8831" />
    </linearGradient>
    <linearGradient
       id="linearGradient8869">
      <stop
         style="stop-color:#623928;stop-opacity:1;"
         offset="0"
         id="stop8871" />
      <stop
         style="stop-color:#6e4622;stop-opacity:1;"
         offset="1"
         id="stop8873" />
    </linearGradient>
    <linearGradient
       id="linearGradient84421">
      <stop
         style="stop-color:#623928;stop-opacity:1;"
         offset="0"
         id="stop84423" />
      <stop
         style="stop-color:#6e4622;stop-opacity:1;"
         offset="1"
         id="stop84425" />
    </linearGradient>
    <linearGradient
       id="linearGradient84428">
      <stop
         style="stop-color:#623928;stop-opacity:1;"
         offset="0"
         id="stop84430" />
      <stop
         style="stop-color:#6e4622;stop-opacity:1;"
         offset="1"
         id="stop84432" />
    </linearGradient>
    <linearGradient
       id="linearGradient8980-7">
      <stop
         style="stop-color:#68a537;stop-opacity:1;"
         offset="0"
         id="stop8982-6" />
      <stop
         style="stop-color:#9dce86;stop-opacity:1;"
         offset="1"
         id="stop8984-6" />
    </linearGradient>
    <linearGradient
       id="linearGradient12826-8">
      <stop
         style="stop-color:#ffd1a1;stop-opacity:1;"
         offset="0"
         id="stop12828-3" />
      <stop
         style="stop-color:#ffbb7d;stop-opacity:1;"
         offset="1"
         id="stop12830-9" />
    </linearGradient>
    <linearGradient
       id="linearGradient10859">
      <stop
         style="stop-color:#ffd1a1;stop-opacity:1;"
         offset="0"
         id="stop10861" />
      <stop
         style="stop-color:#ffbb7d;stop-opacity:1;"
         offset="1"
         id="stop10863" />
    </linearGradient>
    <linearGradient
       id="linearGradient10866">
      <stop
         style="stop-color:#ffd1a1;stop-opacity:1;"
         offset="0"
         id="stop10868" />
      <stop
         style="stop-color:#ffbb7d;stop-opacity:1;"
         offset="1"
         id="stop10870" />
    </linearGradient>
    <linearGradient
       id="linearGradient14777-8">
      <stop
         style="stop-color:#573e24;stop-opacity:1;"
         offset="0"
         id="stop14779-0" />
      <stop
         style="stop-color:#33281c;stop-opacity:1;"
         offset="1"
         id="stop14781-8" />
    </linearGradient>
    <linearGradient
       id="linearGradient14789-0">
      <stop
         style="stop-color:#99833d;stop-opacity:1;"
         offset="0"
         id="stop14791-7" />
      <stop
         style="stop-color:#5c3d22;stop-opacity:1;"
         offset="1"
         id="stop14793-0" />
    </linearGradient>
    <linearGradient
       id="linearGradient14802-9">
      <stop
         style="stop-color:#7a8a9c;stop-opacity:1;"
         offset="0"
         id="stop14804-9" />
      <stop
         style="stop-color:#9aa7b2;stop-opacity:1;"
         offset="1"
         id="stop14806-8" />
    </linearGradient>
    <linearGradient
       id="linearGradient14887-3">
      <stop
         style="stop-color:#ccd0cc;stop-opacity:1;"
         offset="0"
         id="stop14889-5" />
      <stop
         style="stop-color:#808080;stop-opacity:1;"
         offset="1"
         id="stop14891-7" />
    </linearGradient>
    <linearGradient
       id="linearGradient10889">
      <stop
         style="stop-color:#ccd0cc;stop-opacity:1;"
         offset="0"
         id="stop10891" />
      <stop
         style="stop-color:#808080;stop-opacity:1;"
         offset="1"
         id="stop10893" />
    </linearGradient>
    <linearGradient
       id="linearGradient10898">
      <stop
         style="stop-color:#ccd0cc;stop-opacity:1;"
         offset="0"
         id="stop10900" />
      <stop
         style="stop-color:#808080;stop-opacity:1;"
         offset="1"
         id="stop10902" />
    </linearGradient>
    <linearGradient
       id="linearGradient14974-8">
      <stop
         style="stop-color:#f0e48e;stop-opacity:1;"
         offset="0"
         id="stop14976-7" />
      <stop
         style="stop-color:#ebb631;stop-opacity:1;"
         offset="1"
         id="stop14978-8" />
    </linearGradient>
    <linearGradient
       id="linearGradient10911">
      <stop
         style="stop-color:#f0e48e;stop-opacity:1;"
         offset="0"
         id="stop10913" />
      <stop
         style="stop-color:#ebb631;stop-opacity:1;"
         offset="1"
         id="stop10915" />
    </linearGradient>
    <linearGradient
       id="linearGradient10918">
      <stop
         style="stop-color:#f0e48e;stop-opacity:1;"
         offset="0"
         id="stop10920" />
      <stop
         style="stop-color:#ebb631;stop-opacity:1;"
         offset="1"
         id="stop10922" />
    </linearGradient>
    <linearGradient
       id="linearGradient10925">
      <stop
         style="stop-color:#f0e48e;stop-opacity:1;"
         offset="0"
         id="stop10927" />
      <stop
         style="stop-color:#ebb631;stop-opacity:1;"
         offset="1"
         id="stop10929" />
    </linearGradient>
  </defs>
  <sodipodi:namedview
     id="base"
     pagecolor="#ffffff"
     bordercolor="#666666"
     borderopacity="1.0"
     inkscape:pageopacity="0.0"
     inkscape:pageshadow="2"
     inkscape:zoom="0.071055696"
     inkscape:cx="-3555.8794"
     inkscape:cy="3046.8375"
     inkscape:document-units="px"
     inkscape:current-layer="g4710"
     showgrid="false"
     units="mm"
     showguides="true"
     inkscape:guide-bbox="true"
     inkscape:window-width="1920"
     inkscape:window-height="1025"
     inkscape:window-x="1920"
     inkscape:window-y="0"
     inkscape:window-maximized="1"
     inkscape:snap-global="false">
    <sodipodi:guide
       orientation="1,0"
       position="0,0"
       id="guide71155"
       inkscape:locked="false" />
    <sodipodi:guide
       orientation="1,0"
       position="3212.5984,0"
       id="guide71157"
       inkscape:locked="false" />
  </sodipodi:namedview>
  <metadata
     id="metadata51052">
    <rdf:RDF>
      <cc:Work
         rdf:about="">
        <dc:format>image/svg+xml</dc:format>
        <dc:type
           rdf:resource="http://purl.org/dc/dcmitype/StillImage" />
        <dc:title />
      </cc:Work>
    </rdf:RDF>
  </metadata>
  <g
     inkscape:label="Modèle"
     inkscape:groupmode="layer"
     id="layer1"
     transform="translate(0,6436.5353)"
     style="display:none"
     sodipodi:insensitive="true">
    <rect
       inkscape:export-ydpi="90"
       inkscape:export-xdpi="90"
       style="fill:#ffffff;fill-opacity:1;stroke-width:4.05483818"
       y="-5020.1699"
       x="-12237.828"
       height="7706.2222"
       width="3558.7764"
       id="rect5810" />
    <circle
       style="opacity:1;fill:#ffffff;fill-opacity:1;stroke:#eb7239;stroke-width:15.39049339;stroke-miterlimit:4;stroke-dasharray:none;stroke-opacity:1"
       id="path18853"
       cx="1633.1836"
       cy="-4953.1699"
       r="924.18207" />
    <rect
       style="opacity:1;fill:#6a5687;fill-opacity:1;stroke:none;stroke-width:4.05483818"
       id="rect15163-0"
       width="3270.1152"
       height="477.1145"
       x="-38.706787"
       y="-632.95398" />
    <text
       id="text4374-19"
       y="-4415.001"
       x="1002.3395"
       style="font-style:normal;font-weight:normal;font-size:48.65805817px;line-height:0%;font-family:sans-serif;letter-spacing:0px;word-spacing:0px;display:inline;opacity:1;fill:#000000;fill-opacity:1;stroke:none;stroke-width:4.05483818"
       xml:space="preserve"
       inkscape:export-filename="/home/josephk/Bureau/www/framacss/img/biglogo.png"
       inkscape:export-xdpi="97.71096"
       inkscape:export-ydpi="97.71096"><tspan
         style="font-weight:bold;font-size:225.49391174px;line-height:1.25;font-family:sans-serif;-inkscape-font-specification:'DejaVu Sans Bold';stroke-width:4.05483818"
         y="-4415.001"
         x="1002.3395"
         id="tspan4376-2"
         sodipodi:role="line"><tspan
           id="tspan4378-6"
           style="font-style:normal;font-variant:normal;font-weight:bold;font-stretch:normal;font-size:225.49391174px;font-family:'DejaVu Sans';-inkscape-font-specification:'DejaVu Sans Bold';fill:#6a5687;fill-opacity:1;stroke-width:4.05483818">Frama</tspan><tspan
           id="tspan4400-0"
           style="font-size:225.49391174px;font-family:sans-serif;fill:#eb7239;fill-opacity:1;stroke-width:4.05483818">soft</tspan></tspan></text>
    <g
       id="g6262">
      <path
         inkscape:export-ydpi="97.71096"
         inkscape:export-xdpi="97.71096"
         inkscape:export-filename="/home/josephk/Bureau/www/framacss/img/biglogo.png"
         inkscape:connector-curvature="0"
         d="m 1134.4432,-5243.7466 c -6.0406,-26.1575 -0.2973,-54.7589 16.1598,-76.0883 20.7532,-28.7303 58.8222,-41.6592 93.2294,-36.3985 34.1885,5.6307 64.0999,32.0657 72.9851,65.7097 7.9394,26.0819 5.2685,55.7397 -10.0397,78.6774 -14.1197,23.1164 -39.1727,38.1913 -65.757,42.0584 -27.1372,5.059 -56.0621,-3.1373 -76.7033,-21.4122 -15.7523,-13.3714 -25.8607,-32.4184 -29.8743,-52.5465 z"
         style="display:inline;opacity:1;fill:#6a5687;fill-opacity:1;stroke:#6a5687;stroke-width:9.90495872;stroke-miterlimit:4;stroke-dasharray:none;stroke-opacity:1"
         id="path2885-0" />
      <g
         inkscape:export-ydpi="97.71096"
         inkscape:export-xdpi="97.71096"
         inkscape:export-filename="/home/josephk/Bureau/www/framacss/img/biglogo.png"
         id="g3934"
         transform="matrix(2.4957031,0,0,2.4957031,1126.5916,-7165.6311)"
         style="display:inline;opacity:1;fill:#eb7239;fill-opacity:1">
        <path
           style="fill:#eb7239;fill-opacity:1;stroke:none;stroke-width:1.06666672"
           d="m 283.79401,706.80495 c -5.40379,1.59266 2.70796,6.46028 3.24076,9.58331 1.50285,3.14592 4.65741,5.31993 7.25974,7.60511 4.65319,3.50259 9.06996,7.47204 14.64668,9.46292 7.72703,5.30968 11.80784,12.52652 13.83077,26.35143 -9.69591,-2.32427 -17.03385,-3.02127 -33.49138,-13.42711 17.14945,14.35337 27.71691,20.5809 34.04756,26.25542 6.13603,6.62032 17.18845,17.82484 27.76853,34.49254 0.0503,-21.63567 -9.07316,-48.23182 -20.82308,-66.37091 -11.02721,-14.6006 -26.19867,-25.87327 -42.85914,-33.26124 -1.14996,-0.44637 -2.37652,-0.76839 -3.62044,-0.69147 z"
           id="path3926"
           inkscape:connector-curvature="0"
           sodipodi:nodetypes="ccccccccccc" />
      </g>
      <path
         inkscape:export-ydpi="97.71096"
         inkscape:export-xdpi="97.71096"
         inkscape:export-filename="/home/josephk/Bureau/www/framacss/img/biglogo.png"
         inkscape:connector-curvature="0"
         d="m 1267.898,-5003.7077 c -4.575,-19.8106 -0.2315,-41.4768 12.2407,-57.632 15.7203,-21.7657 44.5561,-31.557 70.6197,-27.5712 25.8964,4.2632 48.5532,24.2887 55.2827,49.7726 6.0149,19.754 3.9922,42.22 -7.6039,59.5936 -10.6955,17.5123 -29.673,28.9314 -49.8088,31.8607 -20.5562,3.8307 -42.4665,-2.3778 -58.1017,-16.221 -11.9315,-10.1281 -19.5883,-24.556 -22.6287,-39.7996 z"
         style="display:inline;opacity:1;fill:#6a5687;fill-opacity:1;stroke:#6a5687;stroke-width:9.04439259;stroke-miterlimit:4;stroke-dasharray:none;stroke-opacity:1"
         id="path2885-07" />
      <path
         inkscape:export-ydpi="97.71096"
         inkscape:export-xdpi="97.71096"
         inkscape:export-filename="/home/josephk/Bureau/www/framacss/img/biglogo.png"
         inkscape:connector-curvature="0"
         d="m 2026.9011,-4887.9745 c -10.4089,-3.9363 -22.4766,-3.1703 -32.1553,2.4101 -12.9593,6.9251 -20.3895,21.8452 -20.1445,36.2693 0.4162,14.3591 9.6022,28.1194 22.9274,33.6409 10.2714,4.7161 22.603,5.2707 32.8784,0.3346 10.2828,-4.5146 17.8708,-13.9656 20.9397,-24.6719 3.5867,-10.8649 1.8361,-23.202 -4.5245,-32.6998 -4.6153,-7.2154 -11.8768,-12.4298 -19.9212,-15.1969 z"
         style="display:inline;opacity:1;fill:#eb7239;fill-opacity:1;stroke:#eb7239;stroke-width:8.61344051;stroke-miterlimit:4;stroke-dasharray:none;stroke-opacity:1"
         id="path2885-0-6" />
      <path
         inkscape:export-ydpi="97.71096"
         inkscape:export-xdpi="97.71096"
         inkscape:export-filename="/home/josephk/Bureau/www/framacss/img/biglogo.png"
         inkscape:connector-curvature="0"
         d="m 1990.674,-4753.9736 c -8.6338,-3.2692 -18.6452,-2.642 -26.6744,1.9813 -10.7494,5.7462 -16.9135,18.1198 -16.7097,30.0908 0.3337,11.9079 7.9645,23.3213 19.0183,27.9043 8.5217,3.9101 18.7506,4.3693 27.2748,0.3307 8.5296,-3.7414 14.8245,-11.5848 17.3699,-20.4645 2.9787,-9.012 1.5223,-19.2458 -3.7541,-27.125 -3.8293,-5.9872 -9.8521,-10.3102 -16.5254,-12.6081 z"
         style="display:inline;opacity:1;fill:#eb7239;fill-opacity:1;stroke:#eb7239;stroke-width:8.61344051;stroke-miterlimit:4;stroke-dasharray:none;stroke-opacity:1"
         id="path2885-07-2" />
      <path
         inkscape:export-ydpi="97.71096"
         inkscape:export-xdpi="97.71096"
         inkscape:export-filename="/home/josephk/Bureau/www/framacss/img/biglogo.png"
         inkscape:connector-curvature="0"
         d="m 1381.5184,-4800.9685 c -3.3306,-14.4279 -0.1649,-30.203 8.9127,-41.9661 11.4468,-15.8477 32.4429,-22.9776 51.4203,-20.0752 18.8565,3.1049 35.3529,17.6845 40.2539,36.2403 4.3789,14.3849 2.9027,30.7413 -5.5377,43.3924 -7.7871,12.7499 -21.6054,21.0651 -36.2666,23.1985 -14.9678,2.7738 -30.9209,-1.7171 -42.3057,-11.8125 -8.6877,-7.371 -14.2633,-17.8785 -16.4769,-28.9774 z"
         style="display:inline;opacity:1;fill:#6a5687;fill-opacity:1;stroke:#6a5687;stroke-width:6.5854969;stroke-miterlimit:4;stroke-dasharray:none;stroke-opacity:1"
         id="path2885-07-0" />
      <g
         id="g2891-9-4-3-4"
         style="display:inline;opacity:1;fill:#000000;fill-opacity:1;stroke:#000000;stroke-width:0.39928606;stroke-miterlimit:4;stroke-dasharray:none;stroke-opacity:1"
         transform="matrix(31.572558,0.65471068,0.68365416,-30.235896,-7032.3679,12136.903)">
        <path
           inkscape:connector-curvature="0"
           id="path2893-7-8-3-8"
           d="m 246.73422,590.34342 c -0.24319,-0.017 -0.33664,-0.11396 -0.0296,-0.3363 1.42716,-0.64912 2.93464,-1.17097 4.22401,-2.08212 2.88488,-2.03861 4.77841,-5.04324 5.78936,-8.54145 0.58981,-2.04096 0.5352,-3.2931 0.90106,-5.35116 0.23756,-1.23654 0.87134,-2.85558 1.54614,-4.23389 0.91984,-2.19342 2.2863,-4.20838 3.64793,-5.65487 1.50393,-1.49379 3.94208,-3.16177 7.51806,-4.04955 1.48395,-0.31459 2.3365,-0.44135 2.73104,-0.4251 0.57901,-0.14903 1.22317,-0.15545 0.69514,0.26542 -1.4925,0.76387 -3.35644,1.42902 -4.4081,2.43031 -2.58967,2.46562 -4.44079,5.44746 -5.37986,9.22165 -0.35627,1.43185 -0.54692,2.82645 -0.69849,4.02664 0.0154,1.03936 0.10312,2.12458 0.24243,3.28488 0.15265,1.55861 1.12309,2.85842 2.03486,3.86021 0.85029,0.62633 1.57042,0.91439 2.21474,0.78532 0.96261,-0.2048 3.08155,-0.63432 4.25871,-0.6424 0.45283,1.13406 -0.61567,2.64768 -1.88175,3.67085 2.16694,1.21922 4.23809,1.79587 5.35977,2.17133 0.88085,0.30372 -1.52361,0.05 -2.74667,-0.19154 -1.6426,-0.28499 -3.13632,-0.47458 -4.60281,-0.8673 -1.14397,0.56067 -2.30738,0.70379 -3.40309,0.55362 -0.60677,-0.0243 -1.31298,-0.17474 -1.81738,-0.39703 -1.4437,-0.62591 -3.00941,-2.00453 -3.51748,-3.28976 -0.0782,-0.12812 -0.15909,-0.30554 -0.24187,-0.51149 -0.45228,0.71974 -0.96156,1.3686 -1.50892,1.90704 -2.65539,2.65417 -6.24757,3.0377 -9.78922,4.16546 -0.26503,0.14352 -0.82532,0.25315 -1.13801,0.23123 z m 18.16407,-2.1517 c 0.62383,0.0132 1.12276,-0.11876 1.15349,-0.45926 0.27496,-0.72459 -1.24843,-1.43434 -2.03199,-1.68106 -0.96059,-0.28705 -2.06751,-1.04375 -2.76324,-1.73817 -0.78531,-0.61808 -1.71403,-2.14249 -2.08894,-3.06624 -1.4226,-2.78947 -0.38468,2.10519 0.3143,3.25067 0.50806,1.28523 2.07372,2.6666 3.51742,3.29252 0.52684,0.23217 1.27514,0.38827 1.89896,0.40154 z"
           style="fill:#000000;fill-opacity:1;stroke:#000000;stroke-width:0.42590514;stroke-miterlimit:4;stroke-dasharray:none;stroke-opacity:1" />
      </g>
    </g>
    <image
       y="132.29149"
       x="1413.9207"
       id="image18818"
       xlink:href="data:image/png;base64,iVBORw0KGgoAAAANSUhEUgAAASwAAAEsCAYAAAB5fY51AAAAG3RFWHRDcmVhdGlvbiBUaW1lADE0 NTk4NDgwODgxNzC1K8gmAAAeI0lEQVR42u2dIZAVR9tGERERERGICEQEAoFAIBCICEQEArFiRUQE ImIFIgKBiEAgViBWIBARCAQCgYigKgKBQKxAREQgIhAIRERExP51tjJf8VN3pt+ZeW9vz9zzVHWl KmzNzJ3uPjPT/fTT506UUmohOuctUEoJLKWUElhKKYGllFICSymlBJZSSmAppZTAUkopgaWUElhK KSWwlFJKYCmlBJZSSgkspZQSWEopgaWUUgJLKaUEllJKYCmllMBSSimBpZQSWEopJbCUUkpgKaUE llJKCSyllBJYSimBpZRSAkspJbCUUkpgKaWUwFJKCSyllBJYSiklsJRSAqtJffjw4eTZs2cnv/zy y8lPP/108uOPPy6ucO2PHz8++fPPP7d+v/7++++Tu3fvbryO27dvnxwfH4eO8++//54cHh5u/d5w X5akt2/fnhwdHZ3cu3dvkW3x4ODg5P79+yfPnz8/bSsCK0l07r29vZMvvvji5Ny5c6sp165dO/n9 99+3dt9u3bo1eP6vv/765P3798Xj0CFr3ZMlQIsOfunSpVW1xS+//PL0IRZpDwJrQE+ePDm9mWtq HJ+Xn3/++fQtJlvffvtt8dwRYH733XfV7gVP/lbFW8gPP/yw6rbIQ+zly5cCa4p+/fXXVTeObXdU gZUnHig3btzYibbIl0zL0GoSWIwPrO0TsPbnkMDKU83P4lbetFr9PGwSWLvyNPu0fPPNNycfP34U WI3p3bt3qx+W2FQY0xJYwUH2XWsc23jLEli+Xc0diG9x9rA5YD18+HBngcVsqMBqS1evXt3Z9siM qMAqiFfRXW0gTJdnaX9/v3g+Hg6lmbELFy5U+/3AYRszpnO0i5+DXcGnJbAKunnz5qwZDt4IOpNm zYKZFe/TV199NWuwM0v//PPPKZA2XSufObyBcb8wEPb9pitXrpxeF9P5c+7NmLc0/nbOubInL+Z0 +PPnz5++NQ/d422UzsyK12/O9XPdAmsLnyB0dJ4GuOHPWoAC/9jFixcnNZJaYhaI+xbxiWXYAmp+ WtJpzxJYgP7FixdNvC3+9ddfp3U45U2xxU/0xQOLp0iLU7A0Viq8VWBF73WWGx+I1AIWv+usgMXb TYv6448/Rjv0BVYysK5fv376RtOy7ty5I7B2BFilMcGzFl8gY6AlsBKBhW9pCWufxrqkBdYygdXy sqLP37Sin4cCKxFYrJRfikhGEFjrBRYAWMLDsxNjWgKrYidiJq71T8HPFX3LEljLA1arrvA+MRAv sCp2IjxGS1PUECuwlgesFg2WJUUsDwIrqRNlTlvXEh2/JWBhCmUcsHQ9Dx48SDlfKZ8rs2B2zVpW Ejkf6w2XpsgMtsBKAla2OZDxh1evXp0mmuKhAi7ZqaAMdmYBi4H8p0+fnkbwTCncv27JCUbdvlRK Oj7mUqbqp56L0uVIXb58eVZK5pgZZH5f3/WMeSOKnCtzeIK6pa3QBrtrff36dbrHMLJGUmAlAYuK zAAIlTZk8MSpzPhExmcRT+EsYGUFyZU8Q4Cce5CVsJphpKz128cAK0OAid82tFICQyoGacaganyi C6wGgEUnpCLG5m1xXdEc9G0DK+vTqebi56zP+KxgR5YmtQAs6qBbAjUmSYGZvjlxRAJrAcAiSXHO GwOQm2oOFFgC6/NPPzYJmfsbpj5EBVbjwGLcJivFlIXOAktgTQUWsJqzyP9ziw/rFgXWioD122+/ pUcuj+2AAktgjZmhGwutsW9aAqtRYAGKSCrBtgPOBJbAQtsKqOT3jBnTEliNAos8om35fWgk0Slt gSWwopE+c7aME1gLBtabN2+2blKMDsK3CCw8Z6WxlqxNQ7MaP9P6SwXW2OSOKTnsUcuDwGoQWDXi lvFxtQoszJPcz02Fxs3YB/eSN61NpRsYBlp9x4mULmaZWbG+c0UKD4esscjawOJNfE4abXasscBq DFi8HWSZHkuFfRRbA1ap4eLsj8SMAK25hk/GVlrb3r02sJjJq/G78HQJrAUCq8bnYFcODw+bA1Zk fdtaFz+3CCzy0Wv9tsgyHoHVGLBYa1ergUTC+gXWbgMry3cVKaw9FFgLA1bN/Q0j+wkKrN0GVs39 DSN2G4HVGLBqdhDC+QSWwBrS1F2UppSs/iGwKgIry6+TNWUvsHYbWDW3OYvUmcBqDFgsx6nVQCJR JQJrt4GVFYsTKUQnCayFAQtXcUtjBi0CK7IKYE6kjsCqP6aK1ytiQxFYjQELsW/hthsIXqZIHG+L wALqQKvP8Pno0aO0eo0Ci6Urc0yqgKhFYJFgWwNYvMll1YfAqgysGk+1yAxhq8CqqUgHwegb+ZwZ UjS65SyW5tSYKYwuyBdYDQKL5RCRjRbmBPpFP5kEVr0OEtnw4yyAtW23e9TlLrAaBda2ZwvHVKjA Eljbni0cM0EisBoFFmIfw+zGwdq4MVtJCSyBhUhT2MZbPwvLW60PgTUSWIAlc/yAgeGxYy0CS2B1 YuF5ZgLulAXqAqthYHXQ+v7771PiZKYMDAssgfU5tDLetLhnU9I0BFbjwEJULCbPSKxK34zg1K2V BJbA2vR5OHVMi7f8qTs4CayFAKsTnhgqIwou1gryRJyj2sDKMnzWBFbUIlISU/uRcMOzBlYnZg+j QxYYQ0kuxUO3lAeIwErY+bn7TCSGhm27+FxkWrhL16Sy2BosY5fdswAWvwNocd6ppTawGNfhns+5 Zh4sXcIpb1GbCvUc/ayvtfNz9yDlrQnzJ22Q4QdAxhgVEUaALbqHgMBqCFiRwLzWREZRa5nukTfL jO3lox0k0x/37NmznA4SON/ct52zUCRQUGAlAWvM7iCtKPKZ0hqwlrr4mSVZaR1kgZ/fEUXWkQqs JGCNcfS2Ij47BVada6YN1QTWgwcPFtUWo/sdCKwkYEU3fmhFY5YICazlAWtpD9DoEiGBlQisW7du LaaBMOYW7WwCa3nAomSNmdUQgBVYlYFFYUapdTG+MWY/OoG1TGDxBp01o7xN4UOsvfmtwNrCbNA2 xGfrWDezwFomsDorScvQGhu3JLCSgfXpws+pDvRtDWry9jdlp9+1AouZ3VrXHDWFbuNe84Bq7SGK 7QL4bDONRGBNWKqAA5gsdwyEWf6hqHiy4rXiTWLODilrBBZ1UmOb9m3M3M3JpuIaGBKo7dNikoc+ gJXm9u3bk5eiCayAaob1t1Yy17fh3B9664xOBESARYe8fPlyMU10yK8U/XxmGIDVCUMPjtIyFx5u 0aVWu9oWo5ur7Dywan46tFauXbuW1okiS08i69ciwIp4zCKNPzLGEllvGNkxifGmiLaZWNt6OTo6 ElglbTtGtuUSDWFrbZuvyPgIn8olRdJhI58pmWkN2wh/XEpp0evYHLD4/uaVfRcbyJs3bwRWY8Bi AH0X22L0DXTngTVl+nUNZYwRVmDVAxaKGi3XVKK77wis/2wBNbf2Pusy1nQosOoCa6z5d+klureh wPps5mkXnmzACjtE9lS7wMoDVje2ugvQIlJozOYqAusTceOYgcoM7G+pAIwpQXkCqz6wujettT5E 8Woxk1vbv7gqYH3q0cHugNdn6fCio9DpXr58Ob3SBNaZAOvTgXhmD5dueQBSWFsAVWt7ACwaWEpg tQQsJbCUwBJYSmAJLIElsASWElgCSwksJbAElhJYAktgCSyBpQSWwFICS/Uq4kVjF+GS2L+vdByi WmoB69GjRynLRvC4lY5DyKISWKqCIovDgciQazmaQkBG19BSDUy9kXQN3miG1kuyFCuS1IrZcSh8 j2slvHDJewGoBQGLhkuDo4FvKtEURDor8bB9x2mtsORjzJpC7hOffZ8X3qxIfuhSPvvONzZ+uu84 Y+J3WYvXd5wx6/QATt9xOniypGvT/aF8+PAhfJ9ZQ0jUylLaUYspoasGViQiORJ9scSImgsXLqTc QzLFIjv7rrWwhCtLS1zw3Go0zCqBFRkIZnC2pJrbSmWWLI19i1rbovKaExytlUj/EFgCS2AJLIEl sASWwBJYAktgCSyBJbAElsASWAJLYAksgSWwqgILa4zAElizgUVK4pCZEY/SUjvskydPZt/DXd2a Kmoujer+/fuL/P2l/iGwKgOr8yzxt5sKHiTMhQ8ePDhdV7ap4NOqHbeMIZZlI5uupzModu7yvt9W Kiy3if4uIn4BZN89ipToTt2Z9YEhuO84/B7Mo0Br6j2kdNnt1EVfnbFsKbJ7dnev8UfNuddj6mOo f0SWSQmsZGBFGnVJuIJrwYpOVHrqsb18TYBmLU9hp5Va9QGQSwJaWfeo5IpnuVHkOBlvfJn18fjx Y4HVErCy0gEyN59obZA3ksQQ0RLTGjLHFLPSM7KUVR8CS2AJLIElsASWwBJYAktgCSyBJbAElsAS WAJLYAksgSWwBJbAEljLAhYZRiRhlkQjqrXdOB6j0tT20dHR4oAVNemWzIy4yiN1j8eOcw4JC0XW PcIfN6SnT5+GjoMJtSVgLdVcukhg0fnv3r17+kTeVCJ55p9Cq+84WQVTJBDFzEhAIQ3q89KlhGIe xSMz53yd6TEDWIAEf9Sma6ZgUCzVB+mf3W/rOw6he90bVN9xeCvgXECr7ziRnPpPO23fuciX52HG +fb39zeea29v7/Tf+Tv+vlQfGIf7rjtSSvAcA6xSfRweHgqsLGDh5l2aaGyRRjSUex4VZsdIUmYE WHfu3EmpDzp36TgYHkvKWiOKkffjx4+D53rz5k3oWKW3+Wh9RB7UmIuzgFUqPGgFVgKwlri4kze5 1hY/R4BVczF6ZHwqa9wxc0wxqz6y3oqzgBWpD4ElsASWwBJYAktgCSyBJbAElsASWAJLYAksgSWw BJbAElgCS2AJrHrAYop8aWJz085rtG0z5/HxcSgMr+R2xqAZMdaW6gMvF0F4pSl7AvEi4M8w+0aB FWmPpY1Lo/URCQEsmWZRVuKswEpqIF2Q2xwTXlbBwUyHjAg/TslcSukzl0YLHiOOQ8LnpnNhTO3M jBhW+44z5q1gqD66c2HA7Pv9r1+/HvW22nccTK4ROESBhRucQMC+OuvMpUN1VqqPaBmzvIdVFX3H iXjiBFYysFoqmCszRBRvre3KMU3WWpbUgbGWAEkWsErCNLrE7eNv3rwpsHYVWC1uKxV5Gte81zUX 20YWP2cBK1pnNRc/R5Q1piiwBJbAElgCS2AJLIElsASWwBJYAktgCSyBJbAElsASWAJLYAksgSWw 5grjZNY1kYQ5JAyIBOHV3PW6liKGV3xRGdljmEIz6qOm8A1GNlsVWJWBRaXwJNlUIj6UbGDRkTCa broeQvCiIW/8HX+/6TgYJwER6ab4w/p+/8WLF/+3I3Pf32SVrk6B1pzjjNmpmtTZvuMcHBycmj15 y5pzPd29nlsftIkxb2AYWedcdwRWAqsysKiUkgM96vjNABZLc4ikzThfaQkLZkY6SOk4OK9rPdGz 6pUo4gxxnKwHVkZ98EZYSkBFRBfXeisWWBWBVXPXnAiwooufay62zdo1J2vMpGYnWmp91BwyEVgC S2AJLIElsASWwBJYAktgCSyBJbAElsASWAJLYAksgSWwBJbAWh6wIqmk3Y7Ecwu7H5e2/c5KgaSw weeQMERGPF1ZFoGIup2t55YsK8YS6wNrTOefq1Fqto+dB1Zp23PMg5mVO7TtOd4ZGizJk3OSREm1 xM+DZ+fo6Kg3TbRr1ENpop2ZEdNi33WPcYKTGNp3HK6b6yEies7v5z5mpLsutT66vsF/M1Jih+qD 39OiXJpTqdAYS1uaRxRNJS01OLY8Lz316Yh0/JJevHhRjCUm0z0Km7nCgFky6S6xPiKfabzpR6BV sz4E1gJLi4ttI/c6a5cWFz/vbn0ILIFlBxFYAktgCSyBZX0ILIFlBxFYAktgCSw7iMASWAJLYAks 60Ng7S6w8PyUzKW1O0jnjxraPp7p9pLwDrXkmo6sYMgCFl61SH2UQIMpNMsNHwFWiy72VQMLMx5/ u80yJnAPD03fcTCVdt4Xwt5odJ+XMVu1ZwELgNJw+64bf1VE+Hnu3r3bexxWAnBN/M2m355ZMGpG /ExRYPHb2PZ907nYzTnaRvC0EZO86Th4uUhjzQBfFFil+mgtg37RwOJveCJtWzTWSJRyxIRIhG6k AdUEVi1FjJytfqLv7+83dd2ZwCo9gEtLjgRWEFi88rf0eZG5+HmNwEJZi59rA6u1oYVawHLxs8AS WAJLYAksgSWwBJbAElgCS2AJLIElsASWwBJYAktgCSyBJbAEVul6mLIvZQvh5Yk0ktJmmuRTRaak I5ty1hQ7TLfU8QnMK1lj2D26NWAdHx8X7zW7TQssgVWs3D4THgZDjIP83fXr1zeaK69cufK/f8dI 2GcwxHzK3/H3fUbN0k7Enwone991j/G6vX//vvc4xBp3kOi75u7+RMMQMwzBeOz6rpl7eBbeMc7Z d93RyGLqjfjvvuOw6kJg7TiwIoUc8SFhHM3aYCMiQDqUFAo8I9DCYFhyl7MyAaj1iTfCDtqlt8e5 SaG8Dbf2xtdFKNdIAaUeIsuABNYOAysyZkJjjRwrq1FnLbaNdP4IZFlWUzoO6x8z1OLnXs1djCKf jQJLYKUM8ta81zXTASL3usVtvpYIrMgkiMASWAJLYAksgSWwBJbAElgCS2AJLIElsASWwBJYAktg pQs/TpZRsTS7F02vjGxuGlHEZ5QFrDt37hSP0/m1hgpBdxnCirHLwHr48GFaPpvAaghYiClg3pA2 lagJr3tiMZ3O0/3zgrcI31OXTrnpXJ+aTzF8bjpOtGAsrLkUBLMniZt914MnDI8VvrC+e915vYhk nvPbcYu3Fig4Blh41vp+W9Tygr+OcMK+e40nLCvSW2BVBtaQqNQONBmFzliC51rXrgH/oaUnvFlG zKVLLZF7TZT20EOSttgiaARWQ2LJTFajLSlqLl3rYtvMlQdLBFYk+/3JkycCS2D1K7KtVBawogPz AmudwFpi/xBYAktgCSyBJbAElsASWAJLYAksgSWwBJbAElgCS2CdofB/lCoEP09LyjIhMl29RGAd HBxUAxZ+rbUCKxK8GLHQtNY/Vg0sjJVDpj7ykGqEnI1VNHxvCFbRreFbAxaBcFevXq0Wydti+F5W 2iirHfp0dHQUygtrsX+sFlhqecCKfDKXEkmz1q7R4aPwLJl0MwQ8Ms2+Jaitvu3b/QVWjfVtkTfQ rMW2kfWfFy5cqFpnYzLrhwqfxDvd9u3+AqsGsGqmA0QmQaLpGVmKZKi3tkBaYCmBJbAElsASWAJL YAksJbAElsASWEpgCSyBJbB2QoThtWRmjCgyS5i15+CagZVVHwJLVRMbjg7t2FzTzBgRoXyRZFa8 Wlm+r7UCSx/WAoSTGpfvzZs3T7c8j5gQWytd9C9rwfg8IuK4dUUy1msWDKFD291vA1jPnj3rbW9A mH/PAhYwYqVHC/Vx48YNI5LHCpcwlTQmN31JAGPMhnzulnXt2rWm7htZ9DWBVfr85t+zgBX53KtZ H5GNQwTWf4LukTjYNawfa/ltK5IOULNEBuYzgZWVsBEBVlZaQ817LbD+097e3uph9Sm0Wn3TElgC S2AVtObMoyU1DoElsARWYNyKham7BizGtFr8NBRYAktgDShzy6yllch27gJLYAmshlR7o9CWCo1R YAmsVuojMiO788DKygdfYqltZox0/Jqu+haB9fPPPw8ehwdsFrDwGbKFfAv1QX7XkCdMYM18gjAG RB78o0ePTiuWm/3u3btq5dWrV6dZ2nSoqb4xfkNEnIst2+kEnxeMtdGQN0yYZIRvOg4l6qbHWImB cs79495lpZJmO91xlm+65jGO86jT/fz584P1AUjwa227Pbe63f0qgLW/v9/U0wCLAk/eKctnIiql V/IU/vDhQ/E4kQ0/IuXw8DDlvhFZ3CKwMpS1NGfN29DvBLCyOsu2JhDGLiPKGlfhKVlrPCRrW6mI nWXXgWVaw4KB1eKs2iZojXnTElgCS2CtEFgtzqj1aczMp8ASWAJrhcBi4HkpYkwrOhAvsASWwFoZ sJgJW5qidg2BJbAE1sqA1WLsRUlM2wus+cCKpJKuGViMiQqshQGLjKyliU/Y1oAFIDKSS7OAha+p tI6UT+uhNZesRY3aNWrFDeNRyzJ0Yi5d81b0qwRWVgdBr1+/PgUgyxBo6GRw8dnBDCRPsyHn8RgB kNaAhej8vJFsKrdv364KrG68r+96MAVjE6HQTjYVonrGGHUxzvYdK6Nw/OhDAX8dPqtSfTAkss1r pvAV0yIYdxJYdAqAFEmFoHPQUOYaU1sFVkmXL1+uCqyS8N2tdWlWJG45Uh9ZBSOvwDpjYLGBA8sf xlYe7nHWlU196iwVWLXfeDPGuZZaTGsQWP9vbCP6iTNUyNSObIQgsASWwBJYkzoIsGKwMjNVYSy0 BJbAElgCKyQGELMrkzetMZ+HAktgCSyBVdSLFy+2VqGMaQksgSWwBFZKB+ENiCngbVUoA/HR2UOB JbAElsA688bNQP5agYVHK7IGkl2Ca3l2yPkq5YEttZQiiaP1IbAWCiw60rYrFZ9WxFzaIrBIleSz loa5qWD/wPSIH4d7vqmwVIbzkYDad5xIGZNrBrT6ridSHj58ODqnrGT4xNTadz7uzZgt4ofqY9e3 nlstsDCHZiw7yVrf1SKwIguy6dy1PlMi58pS5tjm27dvi4DNBKTAWiGwam4XFgkSbBFYkXsdGVfJ 2jikZgeJ1kfNXXME1g4Dq+bgbKRiBZbAElgCq1eRDQ2yCgumBZbAElgCazKwai6SJeVBYAksgSWw JgOLmI6WdsgVWAJLYAmsXpFzVatiI4GCAktgCSyB1Su8UbWmkoFja8AiRmdIURNiBFhZiZpkPdXa cZj2kZEthW8qooykEIG1cuNoZ2rcZiEEMPOJngUsPGh7e3uzTYjRTQ+IgO4zTnIdY6A1x4DKZEvU dT/XgMqwQxSwXBNg33QcHi5jzKXRYYq59SGwKgOrhhcruplrbWDVXN8WUWa8zxo3KcHonLXk6ODg IKU+BFZlYEWPN7XwlkJDE1hlAfZa17ykTXa30VYj/SNSHwLrDIDFsglSFbbRMUrjRAJLYAksgTU6 zmQbrvdoSoPAElgCS2CdaYeZsjecwBJYAktgjX7Tmvt5OHW/NoElsASWwBotxrSmNAySS4kkmSqB JbAElsCaLCwP+LSGzKV4mTAGcr65iZqZwKoRTJgJLO5dzWvGHjBlK7azFNebEdBHmy3lcwmsBQKr E45nnOqYAFkw3aVrArSoZSEist+zgIVZkeVANLop5d69e+GlIlFgPX/+vPd8Y2DFbkR9xxljQOWN eOr9oRAmGEmS7eqDtjPnfGP2HuBB23ecyKoLgVUZWFGzZkui42cBK+uJnrU0J2uhOW7v0pssDu5a b2pMrkREvFCtaxqzU5PAagRYLd7Iksj8bglY0Xvd2uLn2rvm7PKYosBK6kR869fapSVLZGYJLIEl sHYQWBQ+Q5Yixq+iG2IILIElsFYILAYpa0WRzNX+/n5qBxFYAktgLQxY0Wjis9bYqGaBJbAE1kqB 1UGr1TetKWZJgSWwBNaKgdV9HjKm1cpAPGF2U13LtQTkI/lLNYF1/fr14rnu3r1bFRClqGlMmjWv JxLHnTUJJLACmuNpYfaQm8zTY06S5JRCQ2Kd4RgD4KZt7yMCzE+fPp18rcTiXL16Ne2JHgXWUJpo dz2YQ/uuGw8SkxeYXuekkkZnbCmcq28bev5/VujeGCc7xt85bTWaxCuwAsp6Wi+xALuIakQ/ZwML B/vQG3B0+Q6R1BnLbmruW7nUIrC2MEi9phJ1Vrc2ZhIBVmR1QmR8KqsTZe6aI7B2GFjHx8c720CO jo4ElsASWEsCFoqOr6ypsK4v+qkjsASWwGpIzLLtWuMYM/sjsASWwGpMuzQoyszoGEuGwBJYAkto nUlhGn+s8VVgCSyB1aj4PFzjmBbT81ODCC9dulTN88OW9hkPlshi9cjGt3iQMkQ441DarOXc6Yy9 wJoxe8gNhPp8QuEkX1rh2ulwdMw5rnzSHzA/bvt6oxn2/BYc6H3HGdPwMbX2HWfqBiB9Ip1zqW1p 24V22mKE02KApZRSAkspJbCUUkpgKaUEllJKCSyllBJYSimBpZRSAksppQSWUkpgKaWUwFJKKYGl lBJYSiklsJRSSmAppQSWUkoJLKWUElhKKYGllFICSymlBJZSSmAppZTAUkopgaWUElhKKSWwlFJK YCmlBJZSSgkspZTA8hYopQSWUkoJLKWUwFJKKYGllFICSym1Y/o/ThdL9lsL5CEAAAAASUVORK5C YII= "
       preserveAspectRatio="none"
       height="482.49692"
       width="482.49692" />
    <flowRoot
       inkscape:export-ydpi="45"
       inkscape:export-xdpi="45"
       xml:space="preserve"
       id="flowRoot18821"
       style="font-style:normal;font-weight:normal;font-size:12.80000019px;line-height:0.01%;font-family:sans-serif;letter-spacing:0px;word-spacing:0px;fill:#ffffff;fill-opacity:1;stroke:none;stroke-width:1.06666672px;stroke-linecap:butt;stroke-linejoin:miter;stroke-opacity:1"
       transform="matrix(3.8014106,0,0,3.8014106,-498.04072,11910.849)"><flowRegion
         style="font-family:sans-serif;stroke-width:1.06666672px"
         id="flowRegion18823"><rect
           id="rect18825"
           width="558.64166"
           height="212.55634"
           x="285.41467"
           y="-3278.0598"
           style="font-size:37.13490295px;font-family:sans-serif;fill:#ffffff;fill-opacity:1;stroke-width:1.13777781px" /></flowRegion><flowPara
         id="flowPara18827"
         style="font-style:normal;font-variant:normal;font-weight:normal;font-stretch:normal;font-size:33.32096481px;line-height:125%;font-family:'DejaVu Sans';-inkscape-font-specification:'DejaVu Sans, Normal';text-align:center;writing-mode:lr-tb;text-anchor:middle;fill:#ffffff;fill-opacity:1;stroke-width:1.06666672px">La route est longue,</flowPara><flowPara
         id="flowPara18831"
         style="font-style:normal;font-variant:normal;font-weight:normal;font-stretch:normal;font-size:33.32096481px;line-height:125%;font-family:'DejaVu Sans';-inkscape-font-specification:'DejaVu Sans, Normal';text-align:center;writing-mode:lr-tb;text-anchor:middle;fill:#ffffff;fill-opacity:1;stroke-width:1.06666672px">mais la voie est libre...</flowPara><flowPara
         id="flowPara18829"
         style="font-style:normal;font-variant:normal;font-weight:normal;font-stretch:normal;font-size:33.32096481px;line-height:125%;font-family:'DejaVu Sans';-inkscape-font-specification:'DejaVu Sans, Normal';text-align:center;writing-mode:lr-tb;text-anchor:middle;fill:#ffffff;fill-opacity:1;stroke-width:1.06666672px"> </flowPara></flowRoot>    <flowRoot
       xml:space="preserve"
       id="flowRoot18923"
       style="font-style:normal;font-weight:normal;font-size:12.80000019px;line-height:0.01%;font-family:sans-serif;text-align:center;letter-spacing:0px;word-spacing:0px;text-anchor:middle;fill:#000000;fill-opacity:1;stroke:none;stroke-width:1.06666672px;stroke-linecap:butt;stroke-linejoin:miter;stroke-opacity:1"
       transform="matrix(3.8014106,0,0,3.8014106,-498.04072,11910.849)"><flowRegion
         style="font-family:sans-serif;stroke-width:1.06666672px"
         id="flowRegion18925"><rect
           id="rect18927"
           width="802.11395"
           height="111.97603"
           x="168.20023"
           y="-2980.5117"
           style="font-family:sans-serif;text-align:center;text-anchor:middle;stroke-width:1.13777781px" /></flowRegion><flowPara
         id="flowPara18929"
         style="font-style:normal;font-variant:normal;font-weight:600;font-stretch:normal;font-size:31.42184258px;line-height:1.25;font-family:Lato;-inkscape-font-specification:'Lato Semi-Bold';stroke-width:1.06666672px">framasoft.org</flowPara></flowRoot>    <path
       inkscape:connector-curvature="0"
       id="path5868"
       d="m 1386.0166,-3704.7166 a 450.44389,450.44389 0 0 0 -31.8812,0.2167 450.44389,450.44389 0 0 0 -419.75002,347.9355 450.44389,450.44389 0 0 0 336.60622,540.8274 450.44389,450.44389 0 0 0 540.8291,-336.6084 450.44389,450.44389 0 0 0 -336.6083,-540.8275 450.44389,450.44389 0 0 0 -89.1958,-11.5414 z"
       style="fill:#0c5b7a;fill-opacity:1;stroke-width:4.05483818" />
    <ellipse
       ry="382.31985"
       rx="390.80774"
       transform="matrix(0.97516528,0.22147839,-0.23200467,0.97271467,0,0)"
       cy="-2776.6672"
       cx="1430.2947"
       id="path5868-3"
       style="fill:#cc2d18;fill-opacity:1;stroke-width:4.05483818" />
    <path
       inkscape:connector-curvature="0"
       id="path5868-3-6"
       d="m 1780.5662,-1812.4565 a 337.29745,337.29745 0 0 0 -404.977,252.0574 337.29745,337.29745 0 0 0 252.0549,404.9761 337.29745,337.29745 0 0 0 404.9788,-252.054 337.29745,337.29745 0 0 0 -252.0567,-404.9795 z"
       style="fill:#8e9c48;fill-opacity:1;stroke-width:4.05483818" />
    <flowRoot
       style="font-style:normal;font-weight:normal;font-size:12.80000019px;line-height:0.01%;font-family:sans-serif;letter-spacing:0px;word-spacing:0px;fill:#ffffff;fill-opacity:1;stroke:none;stroke-width:1.06666672px;stroke-linecap:butt;stroke-linejoin:miter;stroke-opacity:1"
       id="flowRoot5903"
       xml:space="preserve"
       transform="matrix(3.8014106,0,0,3.8014106,-498.04072,11910.849)"><flowRegion
         style="font-family:sans-serif;stroke-width:1.06666672px"
         id="flowRegion5905"><rect
           style="font-size:33.32096481px;font-family:sans-serif;fill:#ffffff;fill-opacity:1;stroke-width:1.13777781px"
           y="-4025.811"
           x="392.90649"
           height="81.057159"
           width="198.57446"
           id="rect5907" /></flowRegion><flowPara
         style="font-style:normal;font-variant:normal;font-weight:normal;font-stretch:normal;font-size:33.32096481px;line-height:1.25;font-family:'DejaVu Sans';-inkscape-font-specification:'DejaVu Sans';text-align:center;text-anchor:middle;fill:#ffffff;fill-opacity:1;stroke-width:1.06666672px"
         id="flowPara5909">Logiciels</flowPara><flowPara
         id="flowPara4463"
         style="font-style:normal;font-variant:normal;font-weight:normal;font-stretch:normal;font-size:33.32096481px;line-height:1.25;font-family:'DejaVu Sans';-inkscape-font-specification:'DejaVu Sans';text-align:center;text-anchor:middle;fill:#ffffff;fill-opacity:1;stroke-width:1.06666672px">libres</flowPara></flowRoot>    <flowRoot
       style="font-style:normal;font-weight:normal;font-size:12.80000019px;line-height:0.01%;font-family:sans-serif;letter-spacing:0px;word-spacing:0px;fill:#ffffff;fill-opacity:1;stroke:none;stroke-width:1.06666672px;stroke-linecap:butt;stroke-linejoin:miter;stroke-opacity:1"
       id="flowRoot5903-9"
       xml:space="preserve"
       transform="matrix(3.8014106,0,0,3.8014106,-498.04072,11910.849)"><flowRegion
         style="font-family:sans-serif;stroke-width:1.06666672px"
         id="flowRegion5905-2"><rect
           style="font-size:35.0746994px;font-family:sans-serif;fill:#ffffff;fill-opacity:1;stroke-width:1.13777781px"
           y="-3793.782"
           x="568.01746"
           height="110.97241"
           width="198.57448"
           id="rect5907-7" /></flowRegion><flowPara
         style="font-style:normal;font-variant:normal;font-weight:normal;font-stretch:normal;font-size:29.81349564px;line-height:1.25;font-family:'DejaVu Sans';-inkscape-font-specification:'DejaVu Sans';text-align:center;text-anchor:middle;fill:#ffffff;fill-opacity:1;stroke-width:1.06666672px"
         id="flowPara5909-5">Cultures</flowPara><flowPara
         id="flowPara4465"
         style="font-style:normal;font-variant:normal;font-weight:normal;font-stretch:normal;font-size:29.81349564px;line-height:1.25;font-family:'DejaVu Sans';-inkscape-font-specification:'DejaVu Sans';text-align:center;text-anchor:middle;fill:#ffffff;fill-opacity:1;stroke-width:1.06666672px">libres</flowPara></flowRoot>    <flowRoot
       style="font-style:normal;font-weight:normal;font-size:3.36717105px;line-height:0.01%;font-family:sans-serif;letter-spacing:0px;word-spacing:0px;fill:#ffffff;fill-opacity:1;stroke:none;stroke-width:0.2805976px;stroke-linecap:butt;stroke-linejoin:miter;stroke-opacity:1"
       id="flowRoot5903-9-8"
       xml:space="preserve"
       transform="matrix(3.8014106,0,0,3.8014106,-498.04072,11910.849)"><flowRegion
         style="font-family:sans-serif;stroke-width:0.2805976px"
         id="flowRegion5905-2-9"><rect
           style="font-family:sans-serif;fill:#ffffff;fill-opacity:1;stroke-width:0.07873501px"
           y="-3549.9053"
           x="478.58099"
           height="63.459908"
           width="200.33421"
           id="rect5907-7-4" /></flowRegion><flowPara
         style="font-style:normal;font-variant:normal;font-weight:normal;font-stretch:normal;font-size:24.55228996px;line-height:1.25;font-family:'DejaVu Sans';-inkscape-font-specification:'DejaVu Sans';text-align:center;text-anchor:middle;fill:#ffffff;fill-opacity:1;stroke-width:0.2805976px"
         id="flowPara5909-5-5">Services</flowPara><flowPara
         id="flowPara4467"
         style="font-style:normal;font-variant:normal;font-weight:normal;font-stretch:normal;font-size:24.55228996px;line-height:1.25;font-family:'DejaVu Sans';-inkscape-font-specification:'DejaVu Sans';text-align:center;text-anchor:middle;fill:#ffffff;fill-opacity:1;stroke-width:0.2805976px">libres</flowPara></flowRoot>  </g>
  <g
     inkscape:groupmode="layer"
     id="layer2"
     inkscape:label="Modèle 1"
     style="display:inline;opacity:1">
    <g
       id="g4710"
       transform="matrix(43.286625,0,0,43.286625,-9086.4493,-4539.5757)">
      <g
         inkscape:export-ydpi="90"
         inkscape:export-xdpi="90"
         transform="matrix(0.06346015,0,0,0.06528515,215.66951,127.39933)"
         id="g340">
        <g
           id="Calque_4">
          <polygon
             style="fill:#feca5d"
             class="st0"
             points="13.5,240.1 169.9,314.8 255.4,284 331,120.5 505.4,604.4 144.8,604.4 "
             id="polygon179" />
          <polygon
             style="fill:#cc9237"
             class="st1"
             points="95.8,355 66.1,357.3 28.9,264 "
             id="polygon181" />
          <polyline
             style="fill:#cc9237"
             class="st1"
             points="364.1,244.3 329.6,150 340.6,262.8  "
             id="polyline183" />
          <circle
             style="fill:#ffffff"
             r="55.700001"
             transform="matrix(0.9877,-0.1564,0.1564,0.9877,-59.4858,58.6365)"
             class="st2"
             cx="342.89999"
             cy="407.29999"
             id="ellipse185" />
          <ellipse
             style="fill:#cc9237"
             transform="matrix(0.9877,-0.1564,0.1564,0.9877,-59.7545,58.7579)"
             class="st1"
             cx="343.5"
             cy="409.10001"
             rx="29.700001"
             ry="37.099998"
             id="ellipse187" />
          <circle
             style="fill:#ffffff"
             r="55.700001"
             transform="matrix(0.9877,-0.1564,0.1564,0.9877,-70.4956,34.5851)"
             class="st2"
             cx="184.5"
             cy="465.20001"
             id="ellipse189" />
          <polygon
             style="fill:#cc9237"
             class="st1"
             points="304.1,475.8 314.1,480.4 299.9,510.6 282.5,516.8 253.3,503.1 257.9,492.4 "
             id="polygon191" />
          <path
             style="fill:#ffffff"
             inkscape:connector-curvature="0"
             class="st2"
             d="m 301.7,517.3 c -7.8,6.7 32.3,20.9 71.2,5.6 15.4,-6 47.6,-29.3 46,-34.1 0,0 -25.5,24.6 -56.5,22.3 -29.8,-2.3 -47.7,-4.9 -60.7,6.2 z"
             id="path193" />
          <ellipse
             style="fill:#cc9237"
             transform="matrix(0.8604,-0.5096,0.5096,0.8604,-212.1454,159.5454)"
             class="st1"
             cx="185.2"
             cy="467"
             rx="29.700001"
             ry="37.099998"
             id="ellipse195" />
          <path
             style="fill:#ffffff"
             inkscape:connector-curvature="0"
             class="st2"
             d="m 289.3,521.8 c 10.3,0.2 -11.5,36.7 -51.3,49.7 -15.7,5.1 -55.3,7.8 -57.2,3 0,0 35.3,2.7 57.7,-18.9 21.6,-20.7 33.8,-34.1 50.8,-33.8 z"
             id="path197" />
          <path
             style="fill:none;stroke:#cc9237;stroke-width:5;stroke-miterlimit:10"
             inkscape:connector-curvature="0"
             class="st3"
             d="m 297.6,527.6 c 4,11 -11.4,26.6 -34.4,34.9"
             id="path199" />
          <path
             style="fill:none;stroke:#cc9237;stroke-width:5;stroke-miterlimit:10"
             inkscape:connector-curvature="0"
             class="st3"
             d="m 298.4,527.3 c 4,11 25.8,13.2 48.7,4.9"
             id="path201" />
        </g>
        <g
           id="Calque_3">
          <polygon
             style="fill:#e5ae37"
             class="st4"
             points="655.3,143.6 729.5,292.7 814.6,324.5 974.6,258.2 847.8,605.1 471.7,602.5 "
             id="polygon204" />
          <polygon
             style="fill:#feca5d"
             class="st0"
             points="647,281.9 622.8,264.4 654.9,169.2 "
             id="polygon206" />
          <polyline
             style="fill:#feca5d"
             class="st0"
             points="923.2,371.1 957.9,276.9 893.3,370  "
             id="polyline208" />
          <polygon
             style="fill:#feca5d"
             class="st0"
             points="741.9,470.3 746.4,480.3 716.1,494.1 698.8,487.6 685.4,458.3 695.8,453.1 "
             id="polygon210" />
          <path
             style="fill:none;stroke:#feca5d;stroke-width:5;stroke-miterlimit:10"
             inkscape:connector-curvature="0"
             class="st5"
             d="m 703.2,504.5 c -4.1,10.9 -25.9,12.9 -48.8,4.3"
             id="path212" />
          <path
             style="fill:none;stroke:#feca5d;stroke-width:5;stroke-miterlimit:10"
             inkscape:connector-curvature="0"
             class="st5"
             d="m 703.2,504.5 c -4.1,10.9 11.1,26.7 34,35.3"
             id="path214" />
          <ellipse
             style="fill:#ffffff"
             transform="matrix(0.1682,-0.9858,0.9858,0.1682,236.7114,1166.6821)"
             class="st2"
             cx="809.59998"
             cy="443.10001"
             rx="42.700001"
             ry="53.900002"
             id="ellipse216" />
          <circle
             style="fill:#feca5d"
             r="33.700001"
             transform="matrix(0.1682,-0.9858,0.9858,0.1682,227.2142,1156.5929)"
             class="st0"
             cx="798.90002"
             cy="443.70001"
             id="ellipse218" />
          <ellipse
             style="fill:#ffffff"
             transform="matrix(0.5198,-0.8543,0.8543,0.5198,-14.1075,747.7414)"
             class="st2"
             cx="658.09998"
             cy="386.39999"
             rx="42.700001"
             ry="53.900002"
             id="ellipse220" />
          <path
             style="fill:#feca5d"
             inkscape:connector-curvature="0"
             class="st0"
             d="m 622.8,371.9 c 9.7,-15.9 30.4,-21 46.3,-11.3 19.2,11.7 17.6,35.9 11.3,46.3 -9.7,15.9 -30.4,21 -46.3,11.3 -16,-9.7 -21,-30.4 -11.3,-46.3 z"
             id="path222" />
          <polyline
             style="fill:#feca5d"
             class="st0"
             points="819.3,389 818.3,324 883.4,323  "
             id="polyline224" />
          <polyline
             style="fill:#feca5d"
             class="st0"
             points="754.1,324.9 819.2,324 818.2,258.9  "
             id="polyline226" />
          <circle
             style="fill:#cc9237"
             r="9.8000002"
             transform="matrix(0.9999,-0.01505521,0.01505521,0.9999,-4.7848,12.3569)"
             class="st1"
             cx="818.29999"
             cy="324"
             id="ellipse228" />
        </g>
        <g
           id="Calque_2">
          <polygon
             style="fill:#cc9237"
             class="st1"
             points="340.3,160 463.5,283.6 554.4,283.5 680.2,167.8 680.4,609.4 335.6,607.7 "
             id="polygon231" />
          <polygon
             style="fill:#feca5d"
             class="st0"
             points="382,292.4 353.3,284.5 349.8,184.2 "
             id="polygon233" />
          <polyline
             style="fill:#feca5d"
             class="st0"
             points="672.1,288.4 671.6,188 643.7,297.9  "
             id="polyline235" />
          <polygon
             style="fill:#feca5d"
             class="st0"
             points="530.6,451.1 538.3,458.8 514.8,482.4 496.3,482.4 473.5,459.6 481.4,451.1 "
             id="polygon237" />
          <path
             style="fill:none;stroke:#feca5d;stroke-width:5;stroke-miterlimit:10"
             inkscape:connector-curvature="0"
             class="st5"
             d="m 506.4,496.7 c 0,11.7 -19.7,21.2 -44.1,21.2"
             id="path239" />
          <path
             style="fill:none;stroke:#feca5d;stroke-width:5;stroke-miterlimit:10"
             inkscape:connector-curvature="0"
             class="st5"
             d="m 506.4,496.7 c 0,11.7 19.8,21.1 44.2,21.1"
             id="path241" />
          <path
             style="fill:none;stroke:#ffffff;stroke-width:4;stroke-miterlimit:10"
             inkscape:connector-curvature="0"
             class="st6"
             d="m 361.9,406 c 31.9,-29.7 81.8,-28 111.6,3.9"
             id="path243" />
          <path
             style="fill:none;stroke:#ffffff;stroke-width:4;stroke-miterlimit:10"
             inkscape:connector-curvature="0"
             class="st6"
             d="M 642.9,405.7 C 610.9,376 561,377.9 531.3,409.9"
             id="path245" />
          <path
             style="fill:none;stroke:#ffffff;stroke-width:2;stroke-miterlimit:10"
             inkscape:connector-curvature="0"
             class="st7"
             d="m 466.5,490.1 c 0,-10.4 -38.9,-18.8 -86.9,-18.7"
             id="path247" />
          <path
             style="fill:none;stroke:#ffffff;stroke-width:2;stroke-miterlimit:10"
             inkscape:connector-curvature="0"
             class="st7"
             d="m 462.2,493.4 c 0,-3.9 -44.8,-7 -100.3,-6.9"
             id="path249" />
          <path
             style="fill:none;stroke:#ffffff;stroke-width:2;stroke-miterlimit:10"
             inkscape:connector-curvature="0"
             class="st7"
             d="m 466.5,502.3 c 0,2.7 -37,5 -82.7,5"
             id="path251" />
          <path
             style="fill:none;stroke:#ffffff;stroke-width:2;stroke-miterlimit:10"
             inkscape:connector-curvature="0"
             class="st7"
             d="m 538.9,490.6 c 0,-10.4 38.9,-18.8 86.9,-18.9"
             id="path253" />
          <path
             style="fill:none;stroke:#ffffff;stroke-width:2;stroke-miterlimit:10"
             inkscape:connector-curvature="0"
             class="st7"
             d="m 543.1,493.9 c 0,-3.9 44.8,-7.1 100.2,-7.2"
             id="path255" />
          <path
             style="fill:none;stroke:#ffffff;stroke-width:2;stroke-miterlimit:10"
             inkscape:connector-curvature="0"
             class="st7"
             d="m 538.9,502.9 c 0,2.7 37,4.9 82.7,4.8"
             id="path257" />
        </g>
        <g
           id="Calque_1">
          <rect
             style="fill:#cc9237"
             x="143.7"
             y="602.5"
             class="st1"
             width="705.5"
             height="13.8"
             id="rect260" />
          <g
             id="g276">
            <path
               style="fill:#cc9237"
               inkscape:connector-curvature="0"
               class="st1"
               d="m 234.4,759.5 c 0.9,1.7 1.7,3.4 2.4,4.9 0.7,1.6 1.2,3.2 1.5,4.9 -3.8,1.9 -8.4,3.4 -13.7,4.5 -5.3,1.1 -10.9,1.6 -16.8,1.6 -8.3,0 -15.8,-1.4 -22.6,-4.1 -6.8,-2.7 -12.7,-6.7 -17.6,-11.9 -4.9,-5.2 -8.6,-11.7 -11.4,-19.4 -2.7,-7.7 -4.1,-16.6 -4.1,-26.6 0,-10.2 1.3,-19.4 4,-27.4 2.7,-8 6.4,-14.8 11.2,-20.3 4.8,-5.5 10.6,-9.7 17.5,-12.6 6.8,-2.9 14.5,-4.3 23,-4.3 7.1,0 13.1,0.5 17.8,1.5 4.7,1 8.2,1.9 10.3,2.6 -0.2,2 -0.5,3.8 -0.9,5.1 -0.4,1.4 -1,3 -1.8,4.9 -1.5,-0.5 -3,-0.9 -4.5,-1.4 -1.5,-0.5 -3.3,-0.9 -5.2,-1.2 -1.9,-0.3 -4.2,-0.6 -6.7,-0.9 -2.5,-0.2 -5.5,-0.3 -8.9,-0.3 -6.7,0 -12.7,1.2 -18,3.7 -5.3,2.4 -9.8,6 -13.6,10.7 -3.7,4.7 -6.6,10.3 -8.6,17.1 -2,6.7 -3.1,14.3 -3.1,22.9 0,8.8 1.1,16.4 3.4,22.9 2.3,6.5 5.4,11.9 9.4,16.1 4,4.3 8.7,7.4 14.1,9.5 5.4,2 11.2,3.1 17.4,3.1 5.3,0 10.1,-0.5 14.5,-1.5 4.5,-1.2 8.1,-2.5 11,-4.1 z"
               id="path262" />
            <path
               style="fill:#cc9237"
               inkscape:connector-curvature="0"
               class="st1"
               d="m 263.3,650.9 c 0.8,-0.1 1.8,-0.2 2.9,-0.3 1.1,-0.1 2.1,-0.1 3.1,-0.1 1,0 2,0 3.1,0.1 1,0.1 1.9,0.1 2.7,0.3 v 52.2 h 60 v -52.2 c 0.8,-0.1 1.7,-0.2 2.7,-0.3 1,-0.1 2,-0.1 3.1,-0.1 0.9,0 1.9,0 3.1,0.1 1.1,0.1 2.1,0.1 2.9,0.3 v 122.6 c -0.7,0.1 -1.6,0.2 -2.6,0.3 -1.1,0.1 -2.2,0.1 -3.3,0.1 -1,0 -2,0 -3.1,-0.1 -1,-0.1 -1.9,-0.1 -2.7,-0.3 v -59.7 h -60 v 59.7 c -0.8,0.1 -1.7,0.2 -2.7,0.3 -1,0.1 -2,0.1 -3.1,0.1 -1.1,0 -2.2,0 -3.3,-0.1 -1.1,-0.1 -2,-0.1 -2.6,-0.3 V 650.9 Z"
               id="path264" />
            <path
               style="fill:#cc9237"
               inkscape:connector-curvature="0"
               class="st1"
               d="m 407.9,650.9 c 0.8,-0.1 1.9,-0.2 3.2,-0.3 1.4,-0.1 2.6,-0.1 3.7,-0.1 1.2,0 2.5,0 3.8,0.1 1.3,0.1 2.3,0.1 3.1,0.3 l 40.7,122.6 c -0.7,0.1 -1.6,0.2 -2.9,0.3 -1.2,0.1 -2.4,0.1 -3.6,0.1 -1,0 -2.1,0 -3.2,-0.1 -1.1,-0.1 -2.1,-0.1 -2.9,-0.3 l -10.2,-31.2 h -50.2 l -9.7,31.2 c -0.9,0.1 -2,0.2 -3.1,0.3 -1.2,0.1 -2.3,0.1 -3.3,0.1 -1.1,0 -2.3,0 -3.5,-0.1 -1.2,-0.1 -2.1,-0.1 -2.8,-0.3 z m 28.5,80.5 -21.9,-68.2 -21.5,68.2 z"
               id="path266" />
            <path
               style="fill:#cc9237"
               inkscape:connector-curvature="0"
               class="st1"
               d="m 491.9,661.5 h -32.7 c -0.1,-0.7 -0.2,-1.5 -0.3,-2.5 -0.1,-1 -0.1,-1.9 -0.1,-2.8 0,-0.8 0,-1.7 0.1,-2.7 0.1,-1 0.1,-1.9 0.3,-2.6 h 77.2 c 0.1,0.7 0.2,1.5 0.3,2.4 0.1,0.9 0.1,1.8 0.1,2.7 0,0.8 0,1.7 -0.1,2.8 -0.1,1.1 -0.1,2 -0.3,2.6 h -32.7 v 112.1 c -0.8,0.1 -1.7,0.2 -2.7,0.3 -1,0.1 -2,0.1 -3.1,0.1 -1.1,0 -2.2,0 -3.3,-0.1 -1.1,-0.1 -2,-0.1 -2.6,-0.3 v -112 z"
               id="path268" />
            <path
               style="fill:#cc9237"
               inkscape:connector-curvature="0"
               class="st1"
               d="m 594.5,775.6 c -8.5,0 -15.9,-1.6 -22.2,-4.7 -6.3,-3.1 -11.6,-7.5 -15.7,-13.1 -4.1,-5.6 -7.2,-12.3 -9.3,-20.1 -2.1,-7.8 -3.1,-16.3 -3.1,-25.5 0,-9.2 1,-17.7 3.1,-25.4 2.1,-7.7 5.2,-14.4 9.3,-20 4.1,-5.6 9.4,-10 15.7,-13.1 6.3,-3.1 13.7,-4.7 22.2,-4.7 8.5,0 15.9,1.6 22.2,4.7 6.3,3.1 11.6,7.5 15.7,13.1 4.1,5.6 7.2,12.3 9.3,20 2.1,7.7 3.1,16.2 3.1,25.4 0,9.2 -1,17.7 -3.1,25.5 -2.1,7.8 -5.2,14.5 -9.3,20.1 -4.1,5.6 -9.4,10 -15.7,13.1 -6.3,3.1 -13.7,4.7 -22.2,4.7 z m 0,-10.8 c 6.6,0 12.2,-1.3 17,-3.8 4.8,-2.6 8.7,-6.2 11.9,-10.8 3.2,-4.7 5.5,-10.2 7,-16.7 1.5,-6.5 2.3,-13.6 2.3,-21.3 0,-7.7 -0.8,-14.8 -2.3,-21.3 -1.5,-6.5 -3.9,-12 -7,-16.6 -3.2,-4.6 -7.1,-8.2 -11.9,-10.7 -4.7,-2.6 -10.4,-3.8 -17,-3.8 -6.6,0 -12.2,1.3 -17,3.8 -4.8,2.6 -8.8,6.1 -11.9,10.7 -3.1,4.6 -5.4,10.1 -7,16.6 -1.5,6.5 -2.3,13.6 -2.3,21.3 0,7.7 0.8,14.8 2.3,21.3 1.5,6.5 3.8,12.1 7,16.7 3.1,4.7 7.1,8.3 11.9,10.8 4.7,2.6 10.4,3.8 17,3.8 z"
               id="path270" />
            <path
               style="fill:#cc9237"
               inkscape:connector-curvature="0"
               class="st1"
               d="m 672.8,650.9 c 0.8,-0.1 1.8,-0.2 3.1,-0.3 1.3,-0.1 2.4,-0.1 3.3,-0.1 0.9,0 2,0 3.2,0.1 1.2,0.1 2.3,0.1 3.1,0.3 l 58.3,102.7 V 650.9 c 0.8,-0.1 1.7,-0.2 2.6,-0.3 1,-0.1 2,-0.1 3,-0.1 0.9,0 1.9,0 3,0.1 1.1,0.1 2,0.1 2.8,0.3 v 122.6 c -0.7,0.1 -1.7,0.2 -3,0.3 -1.3,0.1 -2.5,0.1 -3.5,0.1 -0.9,0 -2,0 -3.2,-0.1 -1.2,-0.1 -2.3,-0.1 -3.1,-0.3 L 684.1,671.7 v 101.8 c -0.8,0.1 -1.7,0.2 -2.6,0.3 -1,0.1 -2,0.1 -3,0.1 -1.1,0 -2.2,0 -3.2,-0.1 -1,-0.1 -1.9,-0.1 -2.5,-0.3 z"
               id="path272" />
            <path
               style="fill:#cc9237"
               inkscape:connector-curvature="0"
               class="st1"
               d="m 784.9,759.9 c 1.6,0.5 3.2,1 4.9,1.5 1.7,0.6 3.6,1.1 5.7,1.5 2.1,0.5 4.4,0.9 7,1.2 2.6,0.3 5.6,0.5 9,0.5 5.4,0 10.1,-0.7 14,-2 3.9,-1.3 7.1,-3.1 9.7,-5.3 2.5,-2.2 4.4,-4.8 5.7,-7.8 1.2,-3 1.9,-6.3 1.9,-9.8 0,-3.4 -0.4,-6.3 -1.3,-8.8 -0.8,-2.4 -2.3,-4.7 -4.4,-6.7 -2.1,-2 -5,-4 -8.6,-5.9 -3.7,-1.9 -8.3,-3.9 -13.8,-6.1 -4,-1.5 -7.7,-3.1 -11.3,-4.8 -3.6,-1.7 -6.7,-3.8 -9.4,-6.2 -2.7,-2.4 -4.9,-5.4 -6.4,-8.8 -1.6,-3.4 -2.4,-7.7 -2.4,-12.8 0,-9.2 3.3,-16.7 9.9,-22.3 6.6,-5.7 16.3,-8.5 28.9,-8.5 2.5,0 5,0.1 7.5,0.3 2.5,0.2 4.9,0.5 7.1,0.9 2.2,0.3 4.2,0.7 6.1,1.2 1.9,0.5 3.4,0.9 4.5,1.2 -0.2,1.7 -0.5,3.4 -0.9,5.2 -0.4,1.8 -0.9,3.4 -1.4,5 -2.7,-0.9 -6.2,-1.7 -10.4,-2.5 -4.2,-0.7 -8.5,-1.1 -12.6,-1.1 -9.4,0 -16.1,1.9 -20.2,5.8 -4.1,3.9 -6.1,8.8 -6.1,14.7 0,3.1 0.6,5.7 1.9,8 1.2,2.3 3,4.3 5.2,6 2.2,1.7 4.8,3.3 7.9,4.7 3.1,1.4 6.3,2.8 9.8,4.2 4.7,1.9 9.2,3.9 13.3,6 4.1,2 7.7,4.4 10.6,7.2 2.9,2.7 5.3,5.9 7,9.6 1.7,3.7 2.5,8.2 2.5,13.4 0,5.9 -1,11.2 -3.1,15.8 -2.1,4.6 -5.1,8.5 -8.9,11.6 -3.8,3.1 -8.5,5.5 -14.1,7.2 -5.5,1.6 -11.8,2.5 -18.7,2.5 -6.7,0 -12.2,-0.5 -16.6,-1.4 -4.4,-1 -8.5,-2.1 -12.4,-3.3 0.2,-1.7 0.6,-3.6 1.2,-5.5 0.4,-2.2 1,-4 1.7,-5.6 z"
               id="path274" />
          </g>
        </g>
      </g>
      <flowRoot
         inkscape:export-ydpi="90"
         inkscape:export-xdpi="90"
         style="font-style:normal;font-weight:normal;line-height:0.01%;font-family:sans-serif;letter-spacing:0px;word-spacing:0px;fill:#4d2f15;fill-opacity:1;stroke:none"
         id="flowRoot1199"
         xml:space="preserve"
         transform="matrix(0.91244942,0,0,0.9386899,21.423641,146.13557)"><flowRegion
           style="fill:#4d2f15;fill-opacity:1"
           id="flowRegion1201"><rect
             style="fill:#4d2f15;fill-opacity:1"
             y="105.92985"
             x="209.19287"
             height="65.716209"
             width="75.635651"
             id="rect1203" /></flowRegion><flowPara
           style="font-style:normal;font-variant:normal;font-weight:bold;font-stretch:normal;font-size:9.00142288px;line-height:1.25;font-family:'Saira Condensed';-inkscape-font-specification:'Saira Condensed, ';text-align:center;text-anchor:middle;fill:#4d2f15;fill-opacity:1"
           id="flowPara1205">Pour des services Internet libres !</flowPara></flowRoot>      <flowRoot
         inkscape:export-ydpi="90"
         inkscape:export-xdpi="90"
         style="font-style:normal;font-weight:normal;line-height:0.01%;font-family:sans-serif;letter-spacing:0px;word-spacing:0px;fill:#e5ae37;fill-opacity:1;stroke:none"
         id="flowRoot1199-2"
         xml:space="preserve"
         transform="matrix(0.91244942,0,0,0.9386899,21.42395,-140.19509)"><flowRegion
           style="fill:#e5ae37;fill-opacity:1"
           id="flowRegion1201-6"><rect
             style="fill:#e5ae37;fill-opacity:1"
             y="270.03745"
             x="209.05861"
             height="30.468723"
             width="76.813263"
             id="rect1203-4" /></flowRegion><flowPara
           style="font-style:normal;font-variant:normal;font-weight:normal;font-stretch:normal;font-size:7.76111126px;line-height:1.25;font-family:Saira;-inkscape-font-specification:Saira;text-align:center;text-anchor:middle;fill:#e5ae37;fill-opacity:1"
           id="flowPara1205-5">www.chatons.org</flowPara></flowRoot>      <flowRoot
         inkscape:export-ydpi="90"
         inkscape:export-xdpi="90"
         transform="matrix(0.19217096,0,0,0.19769747,142.25844,157.60889)"
         style="font-style:normal;font-weight:normal;line-height:0.01%;font-family:sans-serif;letter-spacing:0px;word-spacing:0px;fill:#4d2f15;fill-opacity:1;stroke:none"
         id="flowRoot1199-2-1"
         xml:space="preserve"><flowRegion
           style="fill:#4d2f15;fill-opacity:1"
           id="flowRegion1201-6-7"><rect
             style="fill:#4d2f15;fill-opacity:1"
             y="147.20317"
             x="434.3656"
             height="397.91934"
             width="255.10843"
             id="rect1203-4-5" /></flowRegion><flowPara
           style="font-style:normal;font-variant:normal;font-weight:normal;font-stretch:normal;font-size:28.2563324px;line-height:1.25;font-family:Saira;-inkscape-font-specification:Saira;fill:#4d2f15;fill-opacity:1"
           id="flowPara4554"><flowSpan
   id="flowSpan5306"
   style="font-weight:bold;fill:#4d2f15;fill-opacity:1">C</flowSpan>OLLECTIF DES <flowSpan
   id="flowSpan5308"
   style="font-weight:bold;letter-spacing:0.17420299px;fill:#4d2f15;fill-opacity:1">H</flowSpan><flowSpan
   id="flowSpan5601"
   style="letter-spacing:0.17420299px">ÉBERGEURS</flowSpan><flowSpan
   id="flowSpan5310"
   style="font-weight:bold;fill:#4d2f15;fill-opacity:1"> A</flowSpan>LTERNATIFS <flowSpan
   id="flowSpan5312"
   style="font-weight:bold;fill:#4d2f15;fill-opacity:1">T</flowSpan>RANSPARENTS <flowSpan
   id="flowSpan5314"
   style="font-weight:bold;fill:#4d2f15;fill-opacity:1">O</flowSpan>UVERTS <flowSpan
   id="flowSpan5316"
   style="font-weight:bold;fill:#4d2f15;fill-opacity:1">N</flowSpan>EUTRES ET <flowSpan
   id="flowSpan5318"
   style="font-weight:bold;fill:#4d2f15;fill-opacity:1">S</flowSpan>OLIDAIRES</flowPara></flowRoot>    </g>
  </g>
</svg>
